EESchema Schematic File Version 4
EELAYER 30 0
EELAYER END
$Descr A4 11693 8268
encoding utf-8
Sheet 1 1
Title "Rogue Sensors"
Date "2022-10-12"
Rev "v02"
Comp ""
Comment1 ""
Comment2 "https://creativecommons.org/licenses/by-nc-sa/4.0/"
Comment3 "License: CC BY-NC-SA 4.0"
Comment4 "Author: Hanns Holger Rutz"
$EndDescr
$Comp
L MCU_RaspberryPi_and_Boards:Pico U1
U 1 1 61F3680A
P 5200 3100
F 0 "U1" H 5200 4315 50  0000 C CNN
F 1 "Pico" H 5200 4224 50  0000 C CNN
F 2 "MCU_RaspberryPi_and_Boards:RPi_Pico_SMD_TH" V 5200 3100 50  0001 C CNN
F 3 "" H 5200 3100 50  0001 C CNN
	1    5200 3100
	1    0    0    -1  
$EndComp
$Comp
L Device:LED D2
U 1 1 61F38B3A
P 3750 1300
F 0 "D2" H 3743 1517 50  0000 C CNN
F 1 "RED" H 3743 1426 50  0000 C CNN
F 2 "LED_THT:LED_D3.0mm" H 3750 1300 50  0001 C CNN
F 3 "~" H 3750 1300 50  0001 C CNN
	1    3750 1300
	1    0    0    -1  
$EndComp
$Comp
L Connector:Screw_Terminal_01x03 J1
U 1 1 61F3AF8F
P 1050 2200
F 0 "J1" H 968 1875 50  0000 C CNN
F 1 "Screw_Term_x3" H 968 1966 50  0000 C CNN
F 2 "TerminalBlock_RND:TerminalBlock_RND_205-00046_1x03_P5.00mm_Horizontal" H 1050 2200 50  0001 C CNN
F 3 "~" H 1050 2200 50  0001 C CNN
	1    1050 2200
	-1   0    0    1   
$EndComp
$Comp
L Connector:Screw_Terminal_01x03 J2
U 1 1 61F3D606
P 1050 3150
F 0 "J2" H 968 2825 50  0000 C CNN
F 1 "Screw_Term_x3" H 968 2916 50  0000 C CNN
F 2 "TerminalBlock_RND:TerminalBlock_RND_205-00046_1x03_P5.00mm_Horizontal" H 1050 3150 50  0001 C CNN
F 3 "~" H 1050 3150 50  0001 C CNN
	1    1050 3150
	-1   0    0    1   
$EndComp
$Comp
L Connector:Screw_Terminal_01x02 J6
U 1 1 61F49D9F
P 9500 2650
F 0 "J6" H 9580 2642 50  0000 L CNN
F 1 "Screw_Term_x2_A3" H 9580 2551 50  0000 L CNN
F 2 "TerminalBlock_TE-Connectivity:TerminalBlock_TE_282834-2_1x02_P2.54mm_Horizontal" H 9500 2650 50  0001 C CNN
F 3 "~" H 9500 2650 50  0001 C CNN
	1    9500 2650
	1    0    0    -1  
$EndComp
$Comp
L Connector:Screw_Terminal_01x02 J7
U 1 1 61F4A478
P 9500 2900
F 0 "J7" H 9580 2892 50  0000 L CNN
F 1 "Screw_Term_x2_A2" H 9580 2801 50  0000 L CNN
F 2 "TerminalBlock_TE-Connectivity:TerminalBlock_TE_282834-2_1x02_P2.54mm_Horizontal" H 9500 2900 50  0001 C CNN
F 3 "~" H 9500 2900 50  0001 C CNN
	1    9500 2900
	1    0    0    -1  
$EndComp
$Comp
L Connector:Screw_Terminal_01x02 J8
U 1 1 61F4AE7D
P 9500 3150
F 0 "J8" H 9580 3142 50  0000 L CNN
F 1 "Screw_Term_x2_A1" H 9580 3051 50  0000 L CNN
F 2 "TerminalBlock_TE-Connectivity:TerminalBlock_TE_282834-2_1x02_P2.54mm_Horizontal" H 9500 3150 50  0001 C CNN
F 3 "~" H 9500 3150 50  0001 C CNN
	1    9500 3150
	1    0    0    -1  
$EndComp
$Comp
L Connector:Screw_Terminal_01x02 J9
U 1 1 61F4B787
P 9500 3400
F 0 "J9" H 9580 3392 50  0000 L CNN
F 1 "Screw_Term_x2_A0" H 9580 3301 50  0000 L CNN
F 2 "TerminalBlock_TE-Connectivity:TerminalBlock_TE_282834-2_1x02_P2.54mm_Horizontal" H 9500 3400 50  0001 C CNN
F 3 "~" H 9500 3400 50  0001 C CNN
	1    9500 3400
	1    0    0    -1  
$EndComp
$Comp
L Connector:Screw_Terminal_01x02 J10
U 1 1 61F4BEC2
P 9500 3650
F 0 "J10" H 9580 3642 50  0000 L CNN
F 1 "Screw_Term_x2_B3" H 9580 3551 50  0000 L CNN
F 2 "TerminalBlock_TE-Connectivity:TerminalBlock_TE_282834-2_1x02_P2.54mm_Horizontal" H 9500 3650 50  0001 C CNN
F 3 "~" H 9500 3650 50  0001 C CNN
	1    9500 3650
	1    0    0    -1  
$EndComp
$Comp
L Connector:Screw_Terminal_01x02 J11
U 1 1 61F4C72C
P 9500 3900
F 0 "J11" H 9580 3892 50  0000 L CNN
F 1 "Screw_Term_x2_B2" H 9580 3801 50  0000 L CNN
F 2 "TerminalBlock_TE-Connectivity:TerminalBlock_TE_282834-2_1x02_P2.54mm_Horizontal" H 9500 3900 50  0001 C CNN
F 3 "~" H 9500 3900 50  0001 C CNN
	1    9500 3900
	1    0    0    -1  
$EndComp
$Comp
L Connector:Screw_Terminal_01x02 J12
U 1 1 61F4D215
P 9500 4150
F 0 "J12" H 9580 4142 50  0000 L CNN
F 1 "Screw_Term_x2_B1" H 9580 4051 50  0000 L CNN
F 2 "TerminalBlock_TE-Connectivity:TerminalBlock_TE_282834-2_1x02_P2.54mm_Horizontal" H 9500 4150 50  0001 C CNN
F 3 "~" H 9500 4150 50  0001 C CNN
	1    9500 4150
	1    0    0    -1  
$EndComp
$Comp
L Connector:Screw_Terminal_01x02 J13
U 1 1 61F4DBAD
P 9500 4400
F 0 "J13" H 9580 4392 50  0000 L CNN
F 1 "Screw_Term_x2_B0" H 9580 4301 50  0000 L CNN
F 2 "TerminalBlock_TE-Connectivity:TerminalBlock_TE_282834-2_1x02_P2.54mm_Horizontal" H 9500 4400 50  0001 C CNN
F 3 "~" H 9500 4400 50  0001 C CNN
	1    9500 4400
	1    0    0    -1  
$EndComp
$Comp
L Connector:Screw_Terminal_01x03 J3
U 1 1 61F4E629
P 1050 4000
F 0 "J3" H 968 3675 50  0000 C CNN
F 1 "Screw_Term_x3" H 968 3766 50  0000 C CNN
F 2 "TerminalBlock_RND:TerminalBlock_RND_205-00046_1x03_P5.00mm_Horizontal" H 1050 4000 50  0001 C CNN
F 3 "~" H 1050 4000 50  0001 C CNN
	1    1050 4000
	-1   0    0    1   
$EndComp
$Comp
L Switch:SW_Push_Dual SW2
U 1 1 61F5BBFE
P 5200 5500
F 0 "SW2" H 5200 5785 50  0000 C CNN
F 1 "SW_Push_Dual_1" H 5200 5694 50  0000 C CNN
F 2 "Diode_THT:Diode_Bridge_DIP-4_W7.62mm_P5.08mm" H 5200 5700 50  0001 C CNN
F 3 "~" H 5200 5700 50  0001 C CNN
	1    5200 5500
	1    0    0    -1  
$EndComp
$Comp
L Switch:SW_Push_Dual SW1
U 1 1 61F5C980
P 5200 4850
F 0 "SW1" H 5200 5135 50  0000 C CNN
F 1 "SW_Push_Dual_2" H 5200 5044 50  0000 C CNN
F 2 "Diode_THT:Diode_Bridge_DIP-4_W7.62mm_P5.08mm" H 5200 5050 50  0001 C CNN
F 3 "~" H 5200 5050 50  0001 C CNN
	1    5200 4850
	1    0    0    -1  
$EndComp
$Comp
L Device:R R9
U 1 1 61F616F7
P 2500 4200
F 0 "R9" V 2707 4200 50  0000 C CNN
F 1 "2.2M" V 2616 4200 50  0000 C CNN
F 2 "Resistor_THT:R_Axial_DIN0207_L6.3mm_D2.5mm_P7.62mm_Horizontal" V 2430 4200 50  0001 C CNN
F 3 "~" H 2500 4200 50  0001 C CNN
	1    2500 4200
	0    -1   -1   0   
$EndComp
$Comp
L Device:R R8
U 1 1 61F6544E
P 2500 3950
F 0 "R8" V 2707 3950 50  0000 C CNN
F 1 "2.2M" V 2616 3950 50  0000 C CNN
F 2 "Resistor_THT:R_Axial_DIN0207_L6.3mm_D2.5mm_P7.62mm_Horizontal" V 2430 3950 50  0001 C CNN
F 3 "~" H 2500 3950 50  0001 C CNN
	1    2500 3950
	0    -1   -1   0   
$EndComp
$Comp
L Device:R R7
U 1 1 61F6625C
P 2500 3700
F 0 "R7" V 2707 3700 50  0000 C CNN
F 1 "2.2M" V 2616 3700 50  0000 C CNN
F 2 "Resistor_THT:R_Axial_DIN0207_L6.3mm_D2.5mm_P7.62mm_Horizontal" V 2430 3700 50  0001 C CNN
F 3 "~" H 2500 3700 50  0001 C CNN
	1    2500 3700
	0    -1   -1   0   
$EndComp
$Comp
L Device:R R6
U 1 1 61F66D9E
P 2500 3300
F 0 "R6" V 2707 3300 50  0000 C CNN
F 1 "2.2M" V 2616 3300 50  0000 C CNN
F 2 "Resistor_THT:R_Axial_DIN0207_L6.3mm_D2.5mm_P7.62mm_Horizontal" V 2430 3300 50  0001 C CNN
F 3 "~" H 2500 3300 50  0001 C CNN
	1    2500 3300
	0    -1   -1   0   
$EndComp
$Comp
L Device:R R5
U 1 1 61F68039
P 2500 3050
F 0 "R5" V 2707 3050 50  0000 C CNN
F 1 "2.2M" V 2616 3050 50  0000 C CNN
F 2 "Resistor_THT:R_Axial_DIN0207_L6.3mm_D2.5mm_P7.62mm_Horizontal" V 2430 3050 50  0001 C CNN
F 3 "~" H 2500 3050 50  0001 C CNN
	1    2500 3050
	0    -1   -1   0   
$EndComp
$Comp
L Device:R R4
U 1 1 61F68DDC
P 2500 2800
F 0 "R4" V 2707 2800 50  0000 C CNN
F 1 "2.2M" V 2616 2800 50  0000 C CNN
F 2 "Resistor_THT:R_Axial_DIN0207_L6.3mm_D2.5mm_P7.62mm_Horizontal" V 2430 2800 50  0001 C CNN
F 3 "~" H 2500 2800 50  0001 C CNN
	1    2500 2800
	0    -1   -1   0   
$EndComp
$Comp
L Device:R R3
U 1 1 61F697CE
P 2500 2400
F 0 "R3" V 2707 2400 50  0000 C CNN
F 1 "2.2M" V 2616 2400 50  0000 C CNN
F 2 "Resistor_THT:R_Axial_DIN0207_L6.3mm_D2.5mm_P7.62mm_Horizontal" V 2430 2400 50  0001 C CNN
F 3 "~" H 2500 2400 50  0001 C CNN
	1    2500 2400
	0    -1   -1   0   
$EndComp
$Comp
L Device:R R2
U 1 1 61F6A15F
P 2500 2150
F 0 "R2" V 2707 2150 50  0000 C CNN
F 1 "2.2M" V 2616 2150 50  0000 C CNN
F 2 "Resistor_THT:R_Axial_DIN0207_L6.3mm_D2.5mm_P7.62mm_Horizontal" V 2430 2150 50  0001 C CNN
F 3 "~" H 2500 2150 50  0001 C CNN
	1    2500 2150
	0    -1   -1   0   
$EndComp
$Comp
L Device:R R1
U 1 1 61F6AF4A
P 2500 1850
F 0 "R1" V 2707 1850 50  0000 C CNN
F 1 "2.2M" V 2616 1850 50  0000 C CNN
F 2 "Resistor_THT:R_Axial_DIN0207_L6.3mm_D2.5mm_P7.62mm_Horizontal" V 2430 1850 50  0001 C CNN
F 3 "~" H 2500 1850 50  0001 C CNN
	1    2500 1850
	0    -1   -1   0   
$EndComp
$Comp
L Device:R R10
U 1 1 61FE28BA
P 3000 1950
F 0 "R10" V 2793 1950 50  0000 C CNN
F 1 "220" V 2884 1950 50  0000 C CNN
F 2 "Resistor_THT:R_Axial_DIN0207_L6.3mm_D2.5mm_P7.62mm_Horizontal" V 2930 1950 50  0001 C CNN
F 3 "~" H 3000 1950 50  0001 C CNN
	1    3000 1950
	0    1    1    0   
$EndComp
$Comp
L Device:R R11
U 1 1 61FE383A
P 3000 2250
F 0 "R11" V 2793 2250 50  0000 C CNN
F 1 "220" V 2884 2250 50  0000 C CNN
F 2 "Resistor_THT:R_Axial_DIN0207_L6.3mm_D2.5mm_P7.62mm_Horizontal" V 2930 2250 50  0001 C CNN
F 3 "~" H 3000 2250 50  0001 C CNN
	1    3000 2250
	0    1    1    0   
$EndComp
$Comp
L Device:R R12
U 1 1 61FE74C6
P 3000 2500
F 0 "R12" V 2793 2500 50  0000 C CNN
F 1 "220" V 2884 2500 50  0000 C CNN
F 2 "Resistor_THT:R_Axial_DIN0207_L6.3mm_D2.5mm_P7.62mm_Horizontal" V 2930 2500 50  0001 C CNN
F 3 "~" H 3000 2500 50  0001 C CNN
	1    3000 2500
	0    1    1    0   
$EndComp
$Comp
L Device:R R13
U 1 1 61FE84DC
P 3000 2900
F 0 "R13" V 2793 2900 50  0000 C CNN
F 1 "220" V 2884 2900 50  0000 C CNN
F 2 "Resistor_THT:R_Axial_DIN0207_L6.3mm_D2.5mm_P7.62mm_Horizontal" V 2930 2900 50  0001 C CNN
F 3 "~" H 3000 2900 50  0001 C CNN
	1    3000 2900
	0    1    1    0   
$EndComp
$Comp
L Device:R R14
U 1 1 61FE95B8
P 3000 3150
F 0 "R14" V 2793 3150 50  0000 C CNN
F 1 "220" V 2884 3150 50  0000 C CNN
F 2 "Resistor_THT:R_Axial_DIN0207_L6.3mm_D2.5mm_P7.62mm_Horizontal" V 2930 3150 50  0001 C CNN
F 3 "~" H 3000 3150 50  0001 C CNN
	1    3000 3150
	0    1    1    0   
$EndComp
$Comp
L Device:R R15
U 1 1 61FEA6E5
P 3000 3400
F 0 "R15" V 2793 3400 50  0000 C CNN
F 1 "220" V 2884 3400 50  0000 C CNN
F 2 "Resistor_THT:R_Axial_DIN0207_L6.3mm_D2.5mm_P7.62mm_Horizontal" V 2930 3400 50  0001 C CNN
F 3 "~" H 3000 3400 50  0001 C CNN
	1    3000 3400
	0    1    1    0   
$EndComp
$Comp
L Device:R R16
U 1 1 61FEB663
P 3000 3800
F 0 "R16" V 2793 3800 50  0000 C CNN
F 1 "220" V 2884 3800 50  0000 C CNN
F 2 "Resistor_THT:R_Axial_DIN0207_L6.3mm_D2.5mm_P7.62mm_Horizontal" V 2930 3800 50  0001 C CNN
F 3 "~" H 3000 3800 50  0001 C CNN
	1    3000 3800
	0    1    1    0   
$EndComp
$Comp
L Device:R R17
U 1 1 61FEC373
P 3000 4050
F 0 "R17" V 2793 4050 50  0000 C CNN
F 1 "220" V 2884 4050 50  0000 C CNN
F 2 "Resistor_THT:R_Axial_DIN0207_L6.3mm_D2.5mm_P7.62mm_Horizontal" V 2930 4050 50  0001 C CNN
F 3 "~" H 3000 4050 50  0001 C CNN
	1    3000 4050
	0    1    1    0   
$EndComp
$Comp
L Device:R R18
U 1 1 61FED11A
P 3000 4300
F 0 "R18" V 2793 4300 50  0000 C CNN
F 1 "220" V 2884 4300 50  0000 C CNN
F 2 "Resistor_THT:R_Axial_DIN0207_L6.3mm_D2.5mm_P7.62mm_Horizontal" V 2930 4300 50  0001 C CNN
F 3 "~" H 3000 4300 50  0001 C CNN
	1    3000 4300
	0    1    1    0   
$EndComp
$Comp
L Device:R R20
U 1 1 61FF22C5
P 4150 1300
F 0 "R20" V 3943 1300 50  0000 C CNN
F 1 "1k" V 4034 1300 50  0000 C CNN
F 2 "Resistor_THT:R_Axial_DIN0207_L6.3mm_D2.5mm_P7.62mm_Horizontal" V 4080 1300 50  0001 C CNN
F 3 "~" H 4150 1300 50  0001 C CNN
	1    4150 1300
	0    1    1    0   
$EndComp
$Comp
L Device:R R21
U 1 1 6200FDD7
P 8450 2650
F 0 "R21" V 8243 2650 50  0000 C CNN
F 1 "22k" V 8334 2650 50  0000 C CNN
F 2 "Resistor_THT:R_Axial_DIN0207_L6.3mm_D2.5mm_P7.62mm_Horizontal" V 8380 2650 50  0001 C CNN
F 3 "~" H 8450 2650 50  0001 C CNN
	1    8450 2650
	0    1    1    0   
$EndComp
$Comp
L Device:R R22
U 1 1 62010711
P 8450 2900
F 0 "R22" V 8243 2900 50  0000 C CNN
F 1 "22k" V 8334 2900 50  0000 C CNN
F 2 "Resistor_THT:R_Axial_DIN0207_L6.3mm_D2.5mm_P7.62mm_Horizontal" V 8380 2900 50  0001 C CNN
F 3 "~" H 8450 2900 50  0001 C CNN
	1    8450 2900
	0    1    1    0   
$EndComp
$Comp
L Device:R R23
U 1 1 6201130E
P 8450 3150
F 0 "R23" V 8243 3150 50  0000 C CNN
F 1 "22k" V 8334 3150 50  0000 C CNN
F 2 "Resistor_THT:R_Axial_DIN0207_L6.3mm_D2.5mm_P7.62mm_Horizontal" V 8380 3150 50  0001 C CNN
F 3 "~" H 8450 3150 50  0001 C CNN
	1    8450 3150
	0    1    1    0   
$EndComp
$Comp
L Device:R R24
U 1 1 620121A0
P 8450 3400
F 0 "R24" V 8243 3400 50  0000 C CNN
F 1 "22k" V 8334 3400 50  0000 C CNN
F 2 "Resistor_THT:R_Axial_DIN0207_L6.3mm_D2.5mm_P7.62mm_Horizontal" V 8380 3400 50  0001 C CNN
F 3 "~" H 8450 3400 50  0001 C CNN
	1    8450 3400
	0    1    1    0   
$EndComp
$Comp
L Device:R R25
U 1 1 62012DF8
P 8450 3650
F 0 "R25" V 8243 3650 50  0000 C CNN
F 1 "22k" V 8334 3650 50  0000 C CNN
F 2 "Resistor_THT:R_Axial_DIN0207_L6.3mm_D2.5mm_P7.62mm_Horizontal" V 8380 3650 50  0001 C CNN
F 3 "~" H 8450 3650 50  0001 C CNN
	1    8450 3650
	0    1    1    0   
$EndComp
$Comp
L Device:R R26
U 1 1 62013AED
P 8450 3900
F 0 "R26" V 8243 3900 50  0000 C CNN
F 1 "22k" V 8334 3900 50  0000 C CNN
F 2 "Resistor_THT:R_Axial_DIN0207_L6.3mm_D2.5mm_P7.62mm_Horizontal" V 8380 3900 50  0001 C CNN
F 3 "~" H 8450 3900 50  0001 C CNN
	1    8450 3900
	0    1    1    0   
$EndComp
$Comp
L Device:R R27
U 1 1 62014811
P 8450 4150
F 0 "R27" V 8243 4150 50  0000 C CNN
F 1 "22k" V 8334 4150 50  0000 C CNN
F 2 "Resistor_THT:R_Axial_DIN0207_L6.3mm_D2.5mm_P7.62mm_Horizontal" V 8380 4150 50  0001 C CNN
F 3 "~" H 8450 4150 50  0001 C CNN
	1    8450 4150
	0    1    1    0   
$EndComp
$Comp
L Device:R R28
U 1 1 62015226
P 8450 4400
F 0 "R28" V 8243 4400 50  0000 C CNN
F 1 "22k" V 8334 4400 50  0000 C CNN
F 2 "Resistor_THT:R_Axial_DIN0207_L6.3mm_D2.5mm_P7.62mm_Horizontal" V 8380 4400 50  0001 C CNN
F 3 "~" H 8450 4400 50  0001 C CNN
	1    8450 4400
	0    1    1    0   
$EndComp
$Comp
L power:GND #PWR01
U 1 1 620FA488
P 2100 1850
F 0 "#PWR01" H 2100 1600 50  0001 C CNN
F 1 "GND" V 2105 1722 50  0000 R CNN
F 2 "" H 2100 1850 50  0001 C CNN
F 3 "" H 2100 1850 50  0001 C CNN
	1    2100 1850
	0    1    1    0   
$EndComp
$Comp
L power:GND #PWR02
U 1 1 6210C232
P 2100 2150
F 0 "#PWR02" H 2100 1900 50  0001 C CNN
F 1 "GND" V 2105 2022 50  0000 R CNN
F 2 "" H 2100 2150 50  0001 C CNN
F 3 "" H 2100 2150 50  0001 C CNN
	1    2100 2150
	0    1    1    0   
$EndComp
$Comp
L power:GND #PWR03
U 1 1 6210CB59
P 2100 2400
F 0 "#PWR03" H 2100 2150 50  0001 C CNN
F 1 "GND" V 2105 2272 50  0000 R CNN
F 2 "" H 2100 2400 50  0001 C CNN
F 3 "" H 2100 2400 50  0001 C CNN
	1    2100 2400
	0    1    1    0   
$EndComp
$Comp
L power:GND #PWR04
U 1 1 6210D4CA
P 2100 2800
F 0 "#PWR04" H 2100 2550 50  0001 C CNN
F 1 "GND" V 2105 2672 50  0000 R CNN
F 2 "" H 2100 2800 50  0001 C CNN
F 3 "" H 2100 2800 50  0001 C CNN
	1    2100 2800
	0    1    1    0   
$EndComp
$Comp
L power:GND #PWR05
U 1 1 6210DFAC
P 2100 3050
F 0 "#PWR05" H 2100 2800 50  0001 C CNN
F 1 "GND" V 2105 2922 50  0000 R CNN
F 2 "" H 2100 3050 50  0001 C CNN
F 3 "" H 2100 3050 50  0001 C CNN
	1    2100 3050
	0    1    1    0   
$EndComp
$Comp
L power:GND #PWR06
U 1 1 6210E970
P 2100 3300
F 0 "#PWR06" H 2100 3050 50  0001 C CNN
F 1 "GND" V 2105 3172 50  0000 R CNN
F 2 "" H 2100 3300 50  0001 C CNN
F 3 "" H 2100 3300 50  0001 C CNN
	1    2100 3300
	0    1    1    0   
$EndComp
$Comp
L power:GND #PWR07
U 1 1 6210EECF
P 2100 3700
F 0 "#PWR07" H 2100 3450 50  0001 C CNN
F 1 "GND" V 2105 3572 50  0000 R CNN
F 2 "" H 2100 3700 50  0001 C CNN
F 3 "" H 2100 3700 50  0001 C CNN
	1    2100 3700
	0    1    1    0   
$EndComp
$Comp
L power:GND #PWR08
U 1 1 6210F4D2
P 2100 3950
F 0 "#PWR08" H 2100 3700 50  0001 C CNN
F 1 "GND" V 2105 3822 50  0000 R CNN
F 2 "" H 2100 3950 50  0001 C CNN
F 3 "" H 2100 3950 50  0001 C CNN
	1    2100 3950
	0    1    1    0   
$EndComp
$Comp
L power:GND #PWR09
U 1 1 6210FDAF
P 2100 4200
F 0 "#PWR09" H 2100 3950 50  0001 C CNN
F 1 "GND" V 2105 4072 50  0000 R CNN
F 2 "" H 2100 4200 50  0001 C CNN
F 3 "" H 2100 4200 50  0001 C CNN
	1    2100 4200
	0    1    1    0   
$EndComp
$Comp
L power:GND #PWR012
U 1 1 62110763
P 3450 1300
F 0 "#PWR012" H 3450 1050 50  0001 C CNN
F 1 "GND" V 3455 1172 50  0000 R CNN
F 2 "" H 3450 1300 50  0001 C CNN
F 3 "" H 3450 1300 50  0001 C CNN
	1    3450 1300
	0    1    1    0   
$EndComp
$Comp
L power:GND #PWR014
U 1 1 6213E1A3
P 4900 5700
F 0 "#PWR014" H 4900 5450 50  0001 C CNN
F 1 "GND" V 4905 5572 50  0000 R CNN
F 2 "" H 4900 5700 50  0001 C CNN
F 3 "" H 4900 5700 50  0001 C CNN
	1    4900 5700
	0    1    1    0   
$EndComp
$Comp
L power:GND #PWR013
U 1 1 6213E7CA
P 4850 5050
F 0 "#PWR013" H 4850 4800 50  0001 C CNN
F 1 "GND" V 4855 4922 50  0000 R CNN
F 2 "" H 4850 5050 50  0001 C CNN
F 3 "" H 4850 5050 50  0001 C CNN
	1    4850 5050
	0    1    1    0   
$EndComp
$Comp
L power:GND #PWR010
U 1 1 62142355
P 3250 4750
F 0 "#PWR010" H 3250 4500 50  0001 C CNN
F 1 "GND" H 3255 4577 50  0000 C CNN
F 2 "" H 3250 4750 50  0001 C CNN
F 3 "" H 3250 4750 50  0001 C CNN
	1    3250 4750
	-1   0    0    1   
$EndComp
$Comp
L power:VCC #PWR032
U 1 1 62169DB0
P 9150 2750
F 0 "#PWR032" H 9150 2600 50  0001 C CNN
F 1 "VCC" V 9165 2877 50  0000 L CNN
F 2 "" H 9150 2750 50  0001 C CNN
F 3 "" H 9150 2750 50  0001 C CNN
	1    9150 2750
	0    -1   -1   0   
$EndComp
$Comp
L power:VCC #PWR033
U 1 1 6218358F
P 9150 3000
F 0 "#PWR033" H 9150 2850 50  0001 C CNN
F 1 "VCC" V 9165 3127 50  0000 L CNN
F 2 "" H 9150 3000 50  0001 C CNN
F 3 "" H 9150 3000 50  0001 C CNN
	1    9150 3000
	0    -1   -1   0   
$EndComp
$Comp
L power:VCC #PWR034
U 1 1 62183F32
P 9150 3250
F 0 "#PWR034" H 9150 3100 50  0001 C CNN
F 1 "VCC" V 9165 3377 50  0000 L CNN
F 2 "" H 9150 3250 50  0001 C CNN
F 3 "" H 9150 3250 50  0001 C CNN
	1    9150 3250
	0    -1   -1   0   
$EndComp
$Comp
L power:VCC #PWR035
U 1 1 62184576
P 9150 3500
F 0 "#PWR035" H 9150 3350 50  0001 C CNN
F 1 "VCC" V 9165 3627 50  0000 L CNN
F 2 "" H 9150 3500 50  0001 C CNN
F 3 "" H 9150 3500 50  0001 C CNN
	1    9150 3500
	0    -1   -1   0   
$EndComp
$Comp
L power:VCC #PWR036
U 1 1 62184B91
P 9150 3750
F 0 "#PWR036" H 9150 3600 50  0001 C CNN
F 1 "VCC" V 9165 3877 50  0000 L CNN
F 2 "" H 9150 3750 50  0001 C CNN
F 3 "" H 9150 3750 50  0001 C CNN
	1    9150 3750
	0    -1   -1   0   
$EndComp
$Comp
L power:VCC #PWR037
U 1 1 621855D0
P 9150 4000
F 0 "#PWR037" H 9150 3850 50  0001 C CNN
F 1 "VCC" V 9165 4127 50  0000 L CNN
F 2 "" H 9150 4000 50  0001 C CNN
F 3 "" H 9150 4000 50  0001 C CNN
	1    9150 4000
	0    -1   -1   0   
$EndComp
$Comp
L power:VCC #PWR038
U 1 1 62185BA0
P 9150 4250
F 0 "#PWR038" H 9150 4100 50  0001 C CNN
F 1 "VCC" V 9165 4377 50  0000 L CNN
F 2 "" H 9150 4250 50  0001 C CNN
F 3 "" H 9150 4250 50  0001 C CNN
	1    9150 4250
	0    -1   -1   0   
$EndComp
$Comp
L power:VCC #PWR039
U 1 1 6218618B
P 9150 4500
F 0 "#PWR039" H 9150 4350 50  0001 C CNN
F 1 "VCC" V 9165 4627 50  0000 L CNN
F 2 "" H 9150 4500 50  0001 C CNN
F 3 "" H 9150 4500 50  0001 C CNN
	1    9150 4500
	0    -1   -1   0   
$EndComp
$Comp
L power:VCC #PWR017
U 1 1 6218674E
P 6200 2550
F 0 "#PWR017" H 6200 2400 50  0001 C CNN
F 1 "VCC" V 6215 2678 50  0000 L CNN
F 2 "" H 6200 2550 50  0001 C CNN
F 3 "" H 6200 2550 50  0001 C CNN
	1    6200 2550
	0    1    1    0   
$EndComp
$Comp
L power:GND #PWR016
U 1 1 6218C033
P 6200 2350
F 0 "#PWR016" H 6200 2100 50  0001 C CNN
F 1 "GND" V 6205 2222 50  0000 R CNN
F 2 "" H 6200 2350 50  0001 C CNN
F 3 "" H 6200 2350 50  0001 C CNN
	1    6200 2350
	0    -1   -1   0   
$EndComp
$Comp
L power:VCC #PWR023
U 1 1 6219FAEB
P 6600 4600
F 0 "#PWR023" H 6600 4450 50  0001 C CNN
F 1 "VCC" V 6615 4728 50  0000 L CNN
F 2 "" H 6600 4600 50  0001 C CNN
F 3 "" H 6600 4600 50  0001 C CNN
	1    6600 4600
	0    -1   -1   0   
$EndComp
$Comp
L power:GND #PWR022
U 1 1 621B1B80
P 6600 4300
F 0 "#PWR022" H 6600 4050 50  0001 C CNN
F 1 "GND" V 6605 4172 50  0000 R CNN
F 2 "" H 6600 4300 50  0001 C CNN
F 3 "" H 6600 4300 50  0001 C CNN
	1    6600 4300
	0    1    1    0   
$EndComp
$Comp
L power:GND #PWR024
U 1 1 621D2FB2
P 8150 2650
F 0 "#PWR024" H 8150 2400 50  0001 C CNN
F 1 "GND" V 8155 2522 50  0000 R CNN
F 2 "" H 8150 2650 50  0001 C CNN
F 3 "" H 8150 2650 50  0001 C CNN
	1    8150 2650
	0    1    1    0   
$EndComp
$Comp
L power:GND #PWR025
U 1 1 621D3B99
P 8150 2900
F 0 "#PWR025" H 8150 2650 50  0001 C CNN
F 1 "GND" V 8155 2772 50  0000 R CNN
F 2 "" H 8150 2900 50  0001 C CNN
F 3 "" H 8150 2900 50  0001 C CNN
	1    8150 2900
	0    1    1    0   
$EndComp
$Comp
L power:GND #PWR026
U 1 1 621D4200
P 8150 3150
F 0 "#PWR026" H 8150 2900 50  0001 C CNN
F 1 "GND" V 8155 3022 50  0000 R CNN
F 2 "" H 8150 3150 50  0001 C CNN
F 3 "" H 8150 3150 50  0001 C CNN
	1    8150 3150
	0    1    1    0   
$EndComp
$Comp
L power:GND #PWR027
U 1 1 621D4BE2
P 8150 3400
F 0 "#PWR027" H 8150 3150 50  0001 C CNN
F 1 "GND" V 8155 3272 50  0000 R CNN
F 2 "" H 8150 3400 50  0001 C CNN
F 3 "" H 8150 3400 50  0001 C CNN
	1    8150 3400
	0    1    1    0   
$EndComp
$Comp
L power:GND #PWR028
U 1 1 621D55BE
P 8150 3650
F 0 "#PWR028" H 8150 3400 50  0001 C CNN
F 1 "GND" V 8155 3522 50  0000 R CNN
F 2 "" H 8150 3650 50  0001 C CNN
F 3 "" H 8150 3650 50  0001 C CNN
	1    8150 3650
	0    1    1    0   
$EndComp
$Comp
L power:GND #PWR029
U 1 1 621D5FF3
P 8150 3900
F 0 "#PWR029" H 8150 3650 50  0001 C CNN
F 1 "GND" V 8155 3772 50  0000 R CNN
F 2 "" H 8150 3900 50  0001 C CNN
F 3 "" H 8150 3900 50  0001 C CNN
	1    8150 3900
	0    1    1    0   
$EndComp
$Comp
L power:GND #PWR030
U 1 1 621D69E3
P 8150 4150
F 0 "#PWR030" H 8150 3900 50  0001 C CNN
F 1 "GND" V 8155 4022 50  0000 R CNN
F 2 "" H 8150 4150 50  0001 C CNN
F 3 "" H 8150 4150 50  0001 C CNN
	1    8150 4150
	0    1    1    0   
$EndComp
$Comp
L power:GND #PWR031
U 1 1 621D7416
P 8150 4400
F 0 "#PWR031" H 8150 4150 50  0001 C CNN
F 1 "GND" V 8155 4272 50  0000 R CNN
F 2 "" H 8150 4400 50  0001 C CNN
F 3 "" H 8150 4400 50  0001 C CNN
	1    8150 4400
	0    1    1    0   
$EndComp
$Comp
L power:VCC #PWR021
U 1 1 621DA158
P 6600 4200
F 0 "#PWR021" H 6600 4050 50  0001 C CNN
F 1 "VCC" V 6615 4373 50  0000 C CNN
F 2 "" H 6600 4200 50  0001 C CNN
F 3 "" H 6600 4200 50  0001 C CNN
	1    6600 4200
	0    -1   -1   0   
$EndComp
Wire Wire Line
	2100 1850 2350 1850
Wire Wire Line
	2100 2150 2350 2150
Wire Wire Line
	2100 2400 2350 2400
Wire Wire Line
	2100 2800 2350 2800
Wire Wire Line
	2100 3050 2350 3050
Wire Wire Line
	2100 3300 2350 3300
Wire Wire Line
	2100 3700 2350 3700
Wire Wire Line
	2100 3950 2350 3950
Wire Wire Line
	2100 4200 2350 4200
Wire Wire Line
	2850 1950 1250 1950
Wire Wire Line
	1250 1950 1250 2100
Wire Wire Line
	2850 2250 1250 2250
Wire Wire Line
	1250 2250 1250 2200
Wire Wire Line
	2850 2500 1250 2500
Wire Wire Line
	1250 2500 1250 2300
Wire Wire Line
	2850 2900 1250 2900
Wire Wire Line
	1250 2900 1250 3050
Wire Wire Line
	2850 3150 1250 3150
Wire Wire Line
	2850 3400 1250 3400
Wire Wire Line
	1250 3400 1250 3250
Wire Wire Line
	2850 3800 1250 3800
Wire Wire Line
	1250 3800 1250 3900
Wire Wire Line
	2850 4050 1250 4050
Wire Wire Line
	1250 4050 1250 4000
Wire Wire Line
	2850 4300 1250 4300
Wire Wire Line
	1250 4300 1250 4100
Wire Wire Line
	3450 1300 3600 1300
Wire Wire Line
	3900 1300 4000 1300
Wire Wire Line
	3900 850  4000 850 
Wire Wire Line
	3450 850  3600 850 
$Comp
L power:GND #PWR011
U 1 1 62111129
P 3450 850
F 0 "#PWR011" H 3450 600 50  0001 C CNN
F 1 "GND" V 3455 722 50  0000 R CNN
F 2 "" H 3450 850 50  0001 C CNN
F 3 "" H 3450 850 50  0001 C CNN
	1    3450 850 
	0    1    1    0   
$EndComp
$Comp
L Device:LED D1
U 1 1 61F39432
P 3750 850
F 0 "D1" H 3743 1067 50  0000 C CNN
F 1 "YEL" H 3743 976 50  0000 C CNN
F 2 "LED_THT:LED_D3.0mm" H 3750 850 50  0001 C CNN
F 3 "~" H 3750 850 50  0001 C CNN
	1    3750 850 
	1    0    0    -1  
$EndComp
$Comp
L Device:R R19
U 1 1 61FF334C
P 4150 850
F 0 "R19" V 3943 850 50  0000 C CNN
F 1 "1k" V 4034 850 50  0000 C CNN
F 2 "Resistor_THT:R_Axial_DIN0207_L6.3mm_D2.5mm_P7.62mm_Horizontal" V 4080 850 50  0001 C CNN
F 3 "~" H 4150 850 50  0001 C CNN
	1    4150 850 
	0    1    1    0   
$EndComp
Wire Wire Line
	4850 5050 5000 5050
Wire Wire Line
	4900 5700 5000 5700
NoConn ~ 5400 5500
NoConn ~ 5400 5700
NoConn ~ 5400 4850
NoConn ~ 5400 5050
Wire Wire Line
	3150 1950 3850 1950
Wire Wire Line
	3850 1950 3850 2450
Wire Wire Line
	3850 2450 4500 2450
Wire Wire Line
	2650 1850 3850 1850
Wire Wire Line
	3850 1850 3850 1950
Connection ~ 3850 1950
Wire Wire Line
	3150 2250 3750 2250
Wire Wire Line
	3750 2250 3750 2550
Wire Wire Line
	3750 2550 4500 2550
Wire Wire Line
	2650 2150 3750 2150
Wire Wire Line
	3750 2150 3750 2250
Connection ~ 3750 2250
Wire Wire Line
	3150 2500 3650 2500
Wire Wire Line
	3650 2500 3650 2650
Wire Wire Line
	3650 2650 4500 2650
Wire Wire Line
	2650 2400 3650 2400
Wire Wire Line
	3650 2400 3650 2500
Connection ~ 3650 2500
Wire Wire Line
	3150 2900 3850 2900
Wire Wire Line
	3850 2900 3850 2950
Wire Wire Line
	3850 2950 4500 2950
Wire Wire Line
	2650 2800 3850 2800
Wire Wire Line
	3850 2800 3850 2900
Connection ~ 3850 2900
Wire Wire Line
	3150 3150 3850 3150
Wire Wire Line
	3850 3150 3850 3050
Wire Wire Line
	3850 3050 4500 3050
Wire Wire Line
	2650 3050 3850 3050
Connection ~ 3850 3050
Wire Wire Line
	3150 3400 3950 3400
Wire Wire Line
	3950 3400 3950 3300
Wire Wire Line
	3950 3150 4500 3150
Wire Wire Line
	2650 3300 3950 3300
Connection ~ 3950 3300
Wire Wire Line
	3950 3300 3950 3150
Wire Wire Line
	3150 3800 4050 3800
Wire Wire Line
	4050 3450 4500 3450
Wire Wire Line
	2650 3700 4050 3700
Wire Wire Line
	4050 3450 4050 3700
Connection ~ 4050 3700
Wire Wire Line
	4050 3700 4050 3800
Wire Wire Line
	3150 4050 4150 4050
Wire Wire Line
	4150 3550 4500 3550
Wire Wire Line
	2650 3950 4150 3950
Wire Wire Line
	4150 3550 4150 3950
Connection ~ 4150 3950
Wire Wire Line
	4150 3950 4150 4050
Wire Wire Line
	3150 4300 4250 4300
Wire Wire Line
	4250 3650 4500 3650
Wire Wire Line
	2650 4200 4250 4200
Wire Wire Line
	4250 3650 4250 4200
Connection ~ 4250 4200
Wire Wire Line
	4250 4200 4250 4300
$Comp
L Connector:Screw_Terminal_01x02 J4
U 1 1 61F5DBB6
P 3350 5100
F 0 "J4" V 3222 5180 50  0000 L CNN
F 1 "Screw_Term_x2" V 3313 5180 50  0000 L CNN
F 2 "TerminalBlock_RND:TerminalBlock_RND_205-00045_1x02_P5.00mm_Horizontal" H 3350 5100 50  0001 C CNN
F 3 "~" H 3350 5100 50  0001 C CNN
	1    3350 5100
	0    1    1    0   
$EndComp
Wire Wire Line
	3250 4750 3250 4900
Wire Wire Line
	3350 4900 3350 4400
Wire Wire Line
	3350 4400 4350 4400
Wire Wire Line
	4350 4400 4350 3750
Wire Wire Line
	4350 3750 4500 3750
Wire Wire Line
	5000 4850 4500 4850
Wire Wire Line
	4500 4850 4500 4050
Wire Wire Line
	5000 5500 4450 5500
Wire Wire Line
	4450 5500 4450 3950
Wire Wire Line
	4450 3950 4500 3950
Wire Wire Line
	4300 1300 4300 2250
Wire Wire Line
	4300 2250 4500 2250
Wire Wire Line
	4300 850  4500 850 
Wire Wire Line
	4500 850  4500 2150
Wire Wire Line
	8150 2650 8300 2650
Wire Wire Line
	8150 2900 8300 2900
Wire Wire Line
	8150 3150 8300 3150
Wire Wire Line
	8150 3400 8300 3400
Wire Wire Line
	8150 3650 8300 3650
Wire Wire Line
	8150 3900 8300 3900
Wire Wire Line
	8150 4150 8300 4150
Wire Wire Line
	8150 4400 8300 4400
Wire Wire Line
	9150 2750 9300 2750
Wire Wire Line
	9150 3000 9300 3000
Wire Wire Line
	9150 3250 9300 3250
Wire Wire Line
	9150 3500 9300 3500
Wire Wire Line
	9150 3750 9300 3750
Wire Wire Line
	9150 4000 9300 4000
Wire Wire Line
	9150 4250 9300 4250
Wire Wire Line
	9150 4500 9300 4500
Wire Wire Line
	5900 2350 6200 2350
Wire Wire Line
	5900 2550 6200 2550
NoConn ~ 4500 2350
NoConn ~ 4500 2750
NoConn ~ 4500 2850
NoConn ~ 4500 3250
NoConn ~ 4500 3350
NoConn ~ 4500 3850
$Comp
L power:GND #PWR020
U 1 1 621DAE79
P 6600 3150
F 0 "#PWR020" H 6600 2900 50  0001 C CNN
F 1 "GND" V 6605 3022 50  0000 R CNN
F 2 "" H 6600 3150 50  0001 C CNN
F 3 "" H 6600 3150 50  0001 C CNN
	1    6600 3150
	0    1    1    0   
$EndComp
NoConn ~ 5900 2150
NoConn ~ 5900 2250
NoConn ~ 5900 2450
NoConn ~ 5900 2650
NoConn ~ 5900 2750
NoConn ~ 5900 2850
NoConn ~ 5900 3250
NoConn ~ 5900 3450
NoConn ~ 5900 3550
NoConn ~ 5900 3850
$Comp
L Switch:SW_Push_Dual SW3
U 1 1 61F644D4
P 6350 5550
F 0 "SW3" H 6350 5835 50  0000 C CNN
F 1 "SW_Push_Dual_Rst" H 6350 5744 50  0000 C CNN
F 2 "Diode_THT:Diode_Bridge_DIP-4_W7.62mm_P5.08mm" H 6350 5750 50  0001 C CNN
F 3 "~" H 6350 5750 50  0001 C CNN
	1    6350 5550
	1    0    0    -1  
$EndComp
Wire Wire Line
	5900 3150 6150 3150
$Comp
L power:GND #PWR015
U 1 1 61F6EFCA
P 6050 5750
F 0 "#PWR015" H 6050 5500 50  0001 C CNN
F 1 "GND" V 6055 5622 50  0000 R CNN
F 2 "" H 6050 5750 50  0001 C CNN
F 3 "" H 6050 5750 50  0001 C CNN
	1    6050 5750
	0    1    1    0   
$EndComp
NoConn ~ 5100 4250
NoConn ~ 5200 4250
NoConn ~ 5300 4250
NoConn ~ 6550 5750
NoConn ~ 6550 5550
Wire Wire Line
	6600 3150 6700 3150
Wire Wire Line
	6600 2850 6700 2850
Wire Wire Line
	6600 2750 6700 2750
$Comp
L power:GND #PWR019
U 1 1 621B77D5
P 6600 2850
F 0 "#PWR019" H 6600 2600 50  0001 C CNN
F 1 "GND" V 6605 2722 50  0000 R CNN
F 2 "" H 6600 2850 50  0001 C CNN
F 3 "" H 6600 2850 50  0001 C CNN
	1    6600 2850
	0    1    1    0   
$EndComp
$Comp
L power:VCC #PWR018
U 1 1 6219329F
P 6600 2750
F 0 "#PWR018" H 6600 2600 50  0001 C CNN
F 1 "VCC" V 6615 2923 50  0000 C CNN
F 2 "" H 6600 2750 50  0001 C CNN
F 3 "" H 6600 2750 50  0001 C CNN
	1    6600 2750
	0    -1   -1   0   
$EndComp
Wire Wire Line
	8600 2650 8700 2650
Wire Wire Line
	8600 2900 8700 2900
Wire Wire Line
	8600 3150 8700 3150
Wire Wire Line
	8600 3400 8700 3400
$Comp
L rogue_sensors:ADS1115-Adafruit-breakout U2
U 1 1 61F6E3C2
P 6800 3200
F 0 "U2" V 6749 3528 50  0000 L CNN
F 1 "ADS1115-Adafruit-breakout" V 6840 3528 50  0000 L CNN
F 2 "rogue_sensors:ADS1115-Adafruit-breakout" H 6800 3200 50  0001 C CNN
F 3 "" H 6800 3200 50  0001 C CNN
	1    6800 3200
	0    1    1    0   
$EndComp
Wire Wire Line
	6700 3650 6700 3800
Wire Wire Line
	6700 3800 7200 3800
Wire Wire Line
	7200 3800 7200 3300
Wire Wire Line
	7200 3300 8700 3300
Wire Wire Line
	8700 3300 8700 3400
Connection ~ 8700 3400
Wire Wire Line
	8700 3400 9300 3400
Wire Wire Line
	6700 3550 6650 3550
Wire Wire Line
	6650 3550 6650 3850
Wire Wire Line
	6650 3850 7250 3850
Wire Wire Line
	7250 3850 7250 3050
Wire Wire Line
	7250 3050 8700 3050
Wire Wire Line
	8700 3050 8700 3150
Connection ~ 8700 3150
Wire Wire Line
	8700 3150 9300 3150
Wire Wire Line
	6700 3450 6600 3450
Wire Wire Line
	6600 3450 6600 3900
Wire Wire Line
	6600 3900 7300 3900
Wire Wire Line
	7300 3900 7300 2800
Wire Wire Line
	7300 2800 8700 2800
Wire Wire Line
	8700 2800 8700 2900
Connection ~ 8700 2900
Wire Wire Line
	8700 2900 9300 2900
Wire Wire Line
	6700 3350 6550 3350
Wire Wire Line
	6550 3350 6550 3950
Wire Wire Line
	6550 3950 7350 3950
Wire Wire Line
	7350 3950 7350 2550
Wire Wire Line
	7350 2550 8700 2550
Wire Wire Line
	8700 2550 8700 2650
Connection ~ 8700 2650
Wire Wire Line
	8700 2650 9300 2650
Wire Wire Line
	8600 3650 8700 3650
$Comp
L rogue_sensors:ADS1115-Adafruit-breakout U3
U 1 1 6205C3A2
P 6800 4650
F 0 "U3" V 6749 4978 50  0000 L CNN
F 1 "ADS1115-Adafruit-breakout" V 6840 4978 50  0000 L CNN
F 2 "rogue_sensors:ADS1115-Adafruit-breakout" H 6800 4650 50  0001 C CNN
F 3 "" H 6800 4650 50  0001 C CNN
	1    6800 4650
	0    1    1    0   
$EndComp
Wire Wire Line
	6600 4200 6700 4200
NoConn ~ 6700 3250
NoConn ~ 6700 4700
Wire Wire Line
	6600 4300 6700 4300
Wire Wire Line
	6600 4600 6700 4600
Wire Wire Line
	8600 3900 8700 3900
Wire Wire Line
	8600 4150 8700 4150
Wire Wire Line
	8600 4400 8700 4400
Wire Wire Line
	6700 5100 6700 5250
Wire Wire Line
	6700 5250 7300 5250
Wire Wire Line
	7300 5250 7300 4300
Wire Wire Line
	7300 4300 8700 4300
Wire Wire Line
	8700 4300 8700 4400
Connection ~ 8700 4400
Wire Wire Line
	8700 4400 9300 4400
Wire Wire Line
	6700 5000 6650 5000
Wire Wire Line
	6650 5000 6650 5300
Wire Wire Line
	6650 5300 7350 5300
Wire Wire Line
	7350 5300 7350 4050
Wire Wire Line
	7350 4050 8700 4050
Wire Wire Line
	8700 4050 8700 4150
Connection ~ 8700 4150
Wire Wire Line
	8700 4150 9300 4150
Wire Wire Line
	6700 4900 6600 4900
Wire Wire Line
	6600 4900 6600 5350
Wire Wire Line
	6600 5350 7400 5350
Wire Wire Line
	7400 5350 7400 3800
Wire Wire Line
	7400 3800 8700 3800
Wire Wire Line
	8700 3800 8700 3900
Connection ~ 8700 3900
Wire Wire Line
	8700 3900 9300 3900
Wire Wire Line
	6700 4800 6550 4800
Wire Wire Line
	6550 4800 6550 5400
Wire Wire Line
	6550 5400 7450 5400
Wire Wire Line
	7450 5400 7450 3550
Wire Wire Line
	7450 3550 8700 3550
Wire Wire Line
	8700 3550 8700 3650
Connection ~ 8700 3650
Wire Wire Line
	8700 3650 9300 3650
Wire Wire Line
	5900 2950 6300 2950
Wire Wire Line
	5900 3050 6250 3050
Wire Wire Line
	6700 4400 6300 4400
Wire Wire Line
	6300 4400 6300 2950
Connection ~ 6300 2950
Wire Wire Line
	6300 2950 6700 2950
Wire Wire Line
	6700 4500 6250 4500
Wire Wire Line
	6250 4500 6250 3050
Connection ~ 6250 3050
Wire Wire Line
	6250 3050 6700 3050
Wire Wire Line
	5900 4050 5900 4500
Wire Wire Line
	5900 4500 5550 4500
Wire Wire Line
	6150 3150 6150 5550
Wire Wire Line
	5900 3350 6000 3350
$Comp
L power:GND #PWR042
U 1 1 6217E2C3
P 6000 3350
F 0 "#PWR042" H 6000 3100 50  0001 C CNN
F 1 "GND" V 6005 3222 50  0000 R CNN
F 2 "" H 6000 3350 50  0001 C CNN
F 3 "" H 6000 3350 50  0001 C CNN
	1    6000 3350
	0    -1   -1   0   
$EndComp
Wire Wire Line
	6050 5750 6150 5750
Wire Wire Line
	5900 3950 5950 3950
Wire Wire Line
	5950 3950 5950 4550
Wire Wire Line
	5950 4550 5600 4550
Wire Wire Line
	5900 3750 6000 3750
Wire Wire Line
	6000 3750 6000 4600
Wire Wire Line
	6000 4600 5650 4600
Wire Wire Line
	5900 3650 6050 3650
Wire Wire Line
	6050 3650 6050 4650
Wire Wire Line
	6050 4650 5700 4650
NoConn ~ 4900 6100
NoConn ~ 4900 6200
NoConn ~ 4900 6900
NoConn ~ 4900 7000
NoConn ~ 4300 7000
NoConn ~ 4300 6900
NoConn ~ 4300 6200
NoConn ~ 4300 6100
$Comp
L rogue_sensors:Relay5VDC U4
U 1 1 637FE3EB
P 3000 5800
F 0 "U4" V 3665 5900 50  0000 C CNN
F 1 "Relay5VDC-A" V 3574 5900 50  0000 C CNN
F 2 "rogue_sensors:Relay5VDC" H 3000 5800 50  0001 C CNN
F 3 "" H 3000 5800 50  0001 C CNN
	1    3000 5800
	0    -1   -1   0   
$EndComp
$Comp
L rogue_sensors:Relay5VDC U5
U 1 1 638039ED
P 3000 7050
F 0 "U5" V 3665 7150 50  0000 C CNN
F 1 "Relay5VDC-B" V 3574 7150 50  0000 C CNN
F 2 "rogue_sensors:Relay5VDC" H 3000 7050 50  0001 C CNN
F 3 "" H 3000 7050 50  0001 C CNN
	1    3000 7050
	0    -1   -1   0   
$EndComp
Wire Wire Line
	4300 6400 3450 6400
Wire Wire Line
	3450 6400 3450 7050
Wire Wire Line
	3450 7050 3100 7050
$Comp
L Connector:Screw_Terminal_01x03 J16
U 1 1 638E1A06
P 5850 6950
F 0 "J16" H 5930 6992 50  0000 L CNN
F 1 "Screw_Term_x3_WS2811-A" H 5930 6901 50  0000 L CNN
F 2 "rogue_sensors:TerminalBlock_RND_205-00046_1x03_P5.00mm_Horiz_WS2811" H 5850 6950 50  0001 C CNN
F 3 "~" H 5850 6950 50  0001 C CNN
	1    5850 6950
	1    0    0    -1  
$EndComp
$Comp
L Connector:Screw_Terminal_01x02 J15
U 1 1 638EA424
P 3900 7650
F 0 "J15" V 3772 7730 50  0000 L CNN
F 1 "Screw_Term_Pwr5V_IN" V 3863 7730 50  0000 L CNN
F 2 "rogue_sensors:TerminalBlock_RND_205-00045_1x02_P5.00mm_Horiz_DC" H 3900 7650 50  0001 C CNN
F 3 "~" H 3900 7650 50  0001 C CNN
	1    3900 7650
	0    1    1    0   
$EndComp
Wire Wire Line
	3900 6600 4000 6600
Wire Wire Line
	3800 7450 3800 7400
Wire Wire Line
	3800 6500 3850 6500
Wire Wire Line
	3900 6600 3900 6700
$Comp
L Connector:Screw_Terminal_01x03 J17
U 1 1 6399FDCF
P 5850 7400
F 0 "J17" H 5930 7442 50  0000 L CNN
F 1 "Screw_Term_x3_WS2811-B" H 5930 7351 50  0000 L CNN
F 2 "rogue_sensors:TerminalBlock_RND_205-00046_1x03_P5.00mm_Horiz_WS2811" H 5850 7400 50  0001 C CNN
F 3 "~" H 5850 7400 50  0001 C CNN
	1    5850 7400
	1    0    0    -1  
$EndComp
Wire Wire Line
	5650 7050 5600 7050
Wire Wire Line
	5600 7050 5600 7100
Wire Wire Line
	5600 7100 4250 7100
Wire Wire Line
	5650 7500 4200 7500
$Comp
L Connector:Screw_Terminal_01x02 J5
U 1 1 639C8F32
P 1600 6150
F 0 "J5" H 1680 6142 50  0000 L CNN
F 1 "Screw_Term_Pwr5V_OUT-A" H 1680 6051 50  0000 L CNN
F 2 "rogue_sensors:TerminalBlock_RND_205-00045_1x02_P5.00mm_Horiz_DC" H 1600 6150 50  0001 C CNN
F 3 "~" H 1600 6150 50  0001 C CNN
	1    1600 6150
	-1   0    0    1   
$EndComp
$Comp
L Connector:Screw_Terminal_01x02 J14
U 1 1 639D0CC0
P 1600 6700
F 0 "J14" H 1750 6700 50  0000 C CNN
F 1 "Screw_Term_Pwr5V_OUT-B" H 1700 6600 50  0000 L CNN
F 2 "rogue_sensors:TerminalBlock_RND_205-00045_1x02_P5.00mm_Horiz_DC" H 1600 6700 50  0001 C CNN
F 3 "~" H 1600 6700 50  0001 C CNN
	1    1600 6700
	-1   0    0    1   
$EndComp
Wire Wire Line
	5650 6850 5400 6850
Wire Wire Line
	5400 6850 5400 7150
Wire Wire Line
	5400 7150 3900 7150
Connection ~ 3900 7150
Wire Wire Line
	3900 7150 3900 7300
Wire Wire Line
	5650 6950 5450 6950
Wire Wire Line
	5450 6950 5450 7200
Wire Wire Line
	5450 7200 3800 7200
Connection ~ 3800 7200
Wire Wire Line
	3800 7200 3800 6950
Wire Wire Line
	5650 7300 3900 7300
Connection ~ 3900 7300
Wire Wire Line
	3900 7300 3900 7450
Wire Wire Line
	5650 7400 3800 7400
Connection ~ 3800 7400
Wire Wire Line
	3800 7400 3800 7200
Wire Wire Line
	3100 6850 3900 6850
Connection ~ 3900 6850
Wire Wire Line
	3900 6850 3900 7150
Wire Wire Line
	3100 6950 3800 6950
Connection ~ 3800 6950
Wire Wire Line
	3800 6950 3800 6600
Wire Wire Line
	3100 5600 4000 5600
Wire Wire Line
	4000 5600 4000 6600
Connection ~ 4000 6600
Wire Wire Line
	4000 6600 4300 6600
Wire Wire Line
	3100 5700 3950 5700
Wire Wire Line
	3950 5700 3950 6500
Connection ~ 3950 6500
Wire Wire Line
	3950 6500 4300 6500
Wire Wire Line
	1800 6700 3900 6700
Connection ~ 3900 6700
Wire Wire Line
	3900 6700 3900 6850
Wire Wire Line
	1800 6600 3800 6600
Connection ~ 3800 6600
Wire Wire Line
	3800 6600 3800 6500
Wire Wire Line
	1800 6150 3900 6150
Wire Wire Line
	3900 6150 3900 6600
Connection ~ 3900 6600
Wire Wire Line
	1800 6050 3850 6050
Wire Wire Line
	3850 6050 3850 6500
Connection ~ 3850 6500
Wire Wire Line
	3850 6500 3950 6500
$Comp
L power:VCC #PWR040
U 1 1 63D7399C
P 5000 6500
F 0 "#PWR040" H 5000 6350 50  0001 C CNN
F 1 "VCC" V 5015 6628 50  0000 L CNN
F 2 "" H 5000 6500 50  0001 C CNN
F 3 "" H 5000 6500 50  0001 C CNN
	1    5000 6500
	0    1    1    0   
$EndComp
Wire Wire Line
	5000 6500 4900 6500
$Comp
L power:GND #PWR041
U 1 1 63D89162
P 5000 6600
F 0 "#PWR041" H 5000 6350 50  0001 C CNN
F 1 "GND" V 5005 6472 50  0000 R CNN
F 2 "" H 5000 6600 50  0001 C CNN
F 3 "" H 5000 6600 50  0001 C CNN
	1    5000 6600
	0    -1   -1   0   
$EndComp
Wire Wire Line
	4900 6600 5000 6600
$Comp
L rogue_sensors:LLC8ch U6
U 1 1 634CD26D
P 4600 6550
F 0 "U6" H 4600 7225 50  0000 C CNN
F 1 "LLC8ch" H 4600 7134 50  0000 C CNN
F 2 "rogue_sensors:LLC8ch" H 4600 6550 50  0001 C CNN
F 3 "" H 4600 6550 50  0001 C CNN
	1    4600 6550
	1    0    0    -1  
$EndComp
Wire Wire Line
	3100 5800 4050 5800
Wire Wire Line
	4050 5800 4050 6700
Wire Wire Line
	4050 6700 4300 6700
Wire Wire Line
	4200 7500 4200 6300
Wire Wire Line
	4200 6300 4300 6300
Wire Wire Line
	4250 7100 4250 6800
Wire Wire Line
	4250 6800 4300 6800
Wire Wire Line
	5700 6300 4900 6300
Wire Wire Line
	5700 4650 5700 6300
Wire Wire Line
	5650 6400 4900 6400
Wire Wire Line
	5650 4600 5650 6400
Wire Wire Line
	5600 6700 4900 6700
Wire Wire Line
	5600 4550 5600 6700
Wire Wire Line
	5550 6800 4900 6800
Wire Wire Line
	5550 4500 5550 6800
$EndSCHEMATC
