<?xml version="1.0" encoding="UTF-8" standalone="no"?>
<!-- Created with Inkscape (http://www.inkscape.org/) -->

<svg
   width="200mm"
   height="250mm"
   viewBox="0 0 200 250"
   version="1.1"
   id="svg5"
   inkscape:version="1.2.2 (b0a8486541, 2022-12-01)"
   sodipodi:docname="petri-halterung-drill.svg"
   xmlns:inkscape="http://www.inkscape.org/namespaces/inkscape"
   xmlns:sodipodi="http://sodipodi.sourceforge.net/DTD/sodipodi-0.dtd"
   xmlns="http://www.w3.org/2000/svg"
   xmlns:svg="http://www.w3.org/2000/svg">
  <sodipodi:namedview
     id="namedview7"
     pagecolor="#ffffff"
     bordercolor="#666666"
     borderopacity="1.0"
     inkscape:showpageshadow="2"
     inkscape:pageopacity="0.0"
     inkscape:pagecheckerboard="0"
     inkscape:deskcolor="#d1d1d1"
     inkscape:document-units="mm"
     showgrid="false"
     showguides="true"
     inkscape:zoom="0.74742565"
     inkscape:cx="401.37772"
     inkscape:cy="414.75698"
     inkscape:window-width="1920"
     inkscape:window-height="1011"
     inkscape:window-x="0"
     inkscape:window-y="32"
     inkscape:window-maximized="1"
     inkscape:current-layer="layer1">
    <sodipodi:guide
       position="50,250"
       orientation="-1,0"
       id="guide344"
       inkscape:locked="false"
       inkscape:label=""
       inkscape:color="rgb(0,134,229)" />
    <sodipodi:guide
       position="0,180"
       orientation="0,1"
       id="guide346"
       inkscape:locked="false"
       inkscape:label=""
       inkscape:color="rgb(0,134,229)" />
    <sodipodi:guide
       position="150,250"
       orientation="-1,0"
       id="guide469"
       inkscape:locked="false"
       inkscape:label=""
       inkscape:color="rgb(0,134,229)" />
    <sodipodi:guide
       position="0,79.999999"
       orientation="0,1"
       id="guide757"
       inkscape:locked="false"
       inkscape:label=""
       inkscape:color="rgb(0,134,229)" />
  </sodipodi:namedview>
  <defs
     id="defs2" />
  <g
     inkscape:label="Layer 1"
     inkscape:groupmode="layer"
     id="layer1">
    <g
       id="g797"
       transform="translate(2.0001627,15.000389)">
      <circle
         style="opacity:0.999;fill:none;stroke:#000000;stroke-width:0.0999999;stroke-linecap:square;stop-color:#000000"
         id="path234"
         cx="50"
         cy="70"
         r="45.450001" />
      <path
         id="circle348"
         style="opacity:0.999;fill:none;stroke:#000000;stroke-width:0.0999999;stroke-linecap:square;stop-color:#000000"
         d="m 50.000049,15.847611 a 2.4989259,2.4989259 0 0 0 -2.499072,2.498556 v 2.297534 A 49.450001,49.450001 0 0 0 0.54983724,69.999862 49.450001,49.450001 0 0 0 6.0063517,92.51425 L 4.0168091,93.6625 A 2.4989259,2.4989259 0 0 0 3.102653,97.076245 2.4989259,2.4989259 0 0 0 6.5158813,97.990918 L 8.505424,96.842668 A 49.450001,49.450001 0 0 0 50.000049,119.45007 49.450001,49.450001 0 0 0 91.517411,96.856104 l 1.966805,1.135331 A 2.4989259,2.4989259 0 0 0 96.897445,97.076245 2.4989259,2.4989259 0 0 0 95.983289,93.6625 L 94.016484,92.527169 A 49.450001,49.450001 0 0 0 99.449744,69.999862 49.450001,49.450001 0 0 0 52.499121,20.613729 v -2.267562 a 2.4989259,2.4989259 0 0 0 -2.499072,-2.498556 z" />
      <circle
         style="opacity:0.999;fill:none;stroke:#000000;stroke-width:0.1;stroke-linecap:square;stop-color:#000000"
         id="path497"
         cx="50"
         cy="18.346298"
         r="0.69999999" />
      <circle
         style="opacity:0.999;fill:none;stroke:#000000;stroke-width:0.1;stroke-linecap:square;stop-color:#000000"
         id="circle671"
         cx="-85.62178"
         cy="-43.352428"
         r="0.69999999"
         transform="rotate(-120)" />
      <circle
         style="opacity:0.999;fill:none;stroke:#000000;stroke-width:0.1;stroke-linecap:square;stop-color:#000000"
         id="circle677"
         cx="35.621777"
         cy="-129.95497"
         r="0.69999999"
         transform="rotate(120)" />
      <circle
         style="opacity:0.999;fill:none;stroke:#000000;stroke-width:0.0999999;stroke-linecap:square;stop-color:#000000"
         id="circle753"
         cx="50"
         cy="170"
         r="46.950001" />
      <circle
         style="opacity:0.999;fill:none;stroke:#000000;stroke-width:0.0999999;stroke-linecap:square;stop-color:#000000"
         id="circle755"
         cx="50"
         cy="170"
         r="34.950001" />
    </g>
    <g
       id="g813"
       transform="rotate(180,98.999872,118.899)">
      <circle
         style="opacity:0.999;fill:none;stroke:#000000;stroke-width:0.0999999;stroke-linecap:square;stop-color:#000000"
         id="circle799"
         cx="50"
         cy="70"
         r="45.450001" />
      <path
         id="path801"
         style="opacity:0.999;fill:none;stroke:#000000;stroke-width:0.0999999;stroke-linecap:square;stop-color:#000000"
         d="m 50.000049,15.847611 a 2.4989259,2.4989259 0 0 0 -2.499072,2.498556 v 2.297534 A 49.450001,49.450001 0 0 0 0.54983724,69.999862 49.450001,49.450001 0 0 0 6.0063517,92.51425 L 4.0168091,93.6625 A 2.4989259,2.4989259 0 0 0 3.102653,97.076245 2.4989259,2.4989259 0 0 0 6.5158813,97.990918 L 8.505424,96.842668 A 49.450001,49.450001 0 0 0 50.000049,119.45007 49.450001,49.450001 0 0 0 91.517411,96.856104 l 1.966805,1.135331 A 2.4989259,2.4989259 0 0 0 96.897445,97.076245 2.4989259,2.4989259 0 0 0 95.983289,93.6625 L 94.016484,92.527169 A 49.450001,49.450001 0 0 0 99.449744,69.999862 49.450001,49.450001 0 0 0 52.499121,20.613729 v -2.267562 a 2.4989259,2.4989259 0 0 0 -2.499072,-2.498556 z" />
      <circle
         style="opacity:0.999;fill:none;stroke:#000000;stroke-width:0.1;stroke-linecap:square;stop-color:#000000"
         id="circle803"
         cx="50"
         cy="18.346298"
         r="0.69999999" />
      <circle
         style="opacity:0.999;fill:none;stroke:#000000;stroke-width:0.1;stroke-linecap:square;stop-color:#000000"
         id="circle805"
         cx="-85.62178"
         cy="-43.352428"
         r="0.69999999"
         transform="rotate(-120)" />
      <circle
         style="opacity:0.999;fill:none;stroke:#000000;stroke-width:0.1;stroke-linecap:square;stop-color:#000000"
         id="circle807"
         cx="35.621777"
         cy="-129.95497"
         r="0.69999999"
         transform="rotate(120)" />
      <circle
         style="opacity:0.999;fill:none;stroke:#000000;stroke-width:0.0999999;stroke-linecap:square;stop-color:#000000"
         id="circle809"
         cx="50"
         cy="170"
         r="46.950001" />
      <circle
         style="opacity:0.999;fill:none;stroke:#000000;stroke-width:0.0999999;stroke-linecap:square;stop-color:#000000"
         id="circle811"
         cx="50"
         cy="170"
         r="34.950001" />
    </g>
  </g>
</svg>
