<?xml version="1.0" encoding="UTF-8" standalone="no"?>
<!-- Created with Inkscape (http://www.inkscape.org/) -->

<svg
   width="200mm"
   height="250mm"
   viewBox="0 0 200 250"
   version="1.1"
   id="svg5"
   sodipodi:docname="petri-halterung-drill_v2.svg"
   inkscape:version="1.2.2 (b0a8486541, 2022-12-01)"
   xmlns:inkscape="http://www.inkscape.org/namespaces/inkscape"
   xmlns:sodipodi="http://sodipodi.sourceforge.net/DTD/sodipodi-0.dtd"
   xmlns="http://www.w3.org/2000/svg"
   xmlns:svg="http://www.w3.org/2000/svg">
  <sodipodi:namedview
     id="namedview7"
     pagecolor="#ffffff"
     bordercolor="#666666"
     borderopacity="1.0"
     inkscape:showpageshadow="2"
     inkscape:pageopacity="0.0"
     inkscape:pagecheckerboard="0"
     inkscape:deskcolor="#d1d1d1"
     inkscape:document-units="mm"
     showgrid="false"
     showguides="true"
     inkscape:zoom="0.74742565"
     inkscape:cx="310.39877"
     inkscape:cy="531.15651"
     inkscape:window-width="1920"
     inkscape:window-height="1011"
     inkscape:window-x="0"
     inkscape:window-y="32"
     inkscape:window-maximized="1"
     inkscape:current-layer="layer1">
    <sodipodi:guide
       position="52,250"
       orientation="-1,0"
       id="guide344"
       inkscape:locked="false"
       inkscape:label=""
       inkscape:color="rgb(0,134,229)" />
    <sodipodi:guide
       position="0,180"
       orientation="0,1"
       id="guide346"
       inkscape:locked="false"
       inkscape:label=""
       inkscape:color="rgb(0,134,229)" />
    <sodipodi:guide
       position="150,250"
       orientation="-1,0"
       id="guide469"
       inkscape:locked="false"
       inkscape:label=""
       inkscape:color="rgb(0,134,229)" />
    <sodipodi:guide
       position="0,125"
       orientation="0,1"
       id="guide1564"
       inkscape:locked="false"
       inkscape:label=""
       inkscape:color="rgb(0,134,229)" />
    <sodipodi:guide
       position="99.999999,250"
       orientation="-1,0"
       id="guide1566"
       inkscape:locked="false"
       inkscape:label=""
       inkscape:color="rgb(0,134,229)" />
  </sodipodi:namedview>
  <defs
     id="defs2" />
  <g
     inkscape:label="Layer 1"
     inkscape:groupmode="layer"
     id="layer1">
    <path
       id="circle348"
       style="opacity:0.999;fill:#00ffff;stroke:#000000;stroke-width:0.0999999;stroke-linecap:square;stop-color:#000000"
       d="M 58.965363,4.3613404 C 57.047323,4.1258286 55.30151,5.4898065 55.066011,7.4078482 L 54.844707,9.2102226 A 50.449997,50.449997 0 0 0 1.612887,53.390219 50.449997,50.449997 0 0 0 3.9351244,75.807458 L 3.3292652,76.064719 C 1.5504339,76.819781 0.72065047,78.874275 1.4757241,80.6531 2.2307868,82.431931 4.284766,83.261651 6.0635924,82.506578 L 6.6573489,82.2546 A 50.449997,50.449997 0 0 0 45.538664,109.61265 50.449997,50.449997 0 0 0 90.216931,92.098951 l 1.173748,0.884476 c 1.543322,1.162984 3.737528,0.854874 4.900499,-0.688453 1.162982,-1.54332 0.854303,-3.737075 -0.689027,-4.900049 L 94.354568,86.454526 A 50.449997,50.449997 0 0 0 101.76058,65.68681 50.449997,50.449997 0 0 0 61.784773,10.110255 L 62.011871,8.2606925 C 62.247383,6.3426523 60.883405,4.5968403 58.965363,4.3613404 Z m -0.34115,2.7784463 c 0.383713,0.047114 0.656838,0.3961009 0.609723,0.7798183 -0.04711,0.3837175 -0.396617,0.6567761 -0.78033,0.6096619 -0.383718,-0.047114 -0.656264,-0.3965511 -0.609149,-0.7802685 0.04712,-0.3837171 0.396038,-0.6563262 0.779756,-0.6092117 z M 57.904755,12.999299 A 46.450001,46.450001 0 0 1 98.347587,64.763762 46.450001,46.450001 0 0 1 46.58306,105.2071 46.450001,46.450001 0 0 1 6.140291,53.44213 46.450001,46.450001 0 0 1 57.904755,12.999299 Z M 4.7629794,78.588866 c 0.091736,0.0088 0.1807652,0.03562 0.2616226,0.07846 a 50.449997,50.449997 0 0 0 0.3384496,0.830854 c -0.059844,0.187564 -0.197553,0.348819 -0.3929972,0.431782 -0.3558654,0.151054 -0.7666586,-0.01454 -0.917714,-0.370401 -0.1510561,-0.355865 0.014598,-0.767171 0.3704634,-0.918228 0.1112085,-0.04721 0.2278222,-0.06331 0.3401752,-0.05246 z M 93.600439,89.496735 c 0.111643,0.01663 0.220894,0.0605 0.317379,0.133201 0.30875,0.232661 0.370493,0.671888 0.137833,0.980639 -0.232661,0.30875 -0.671823,0.369981 -0.980575,0.13732 -0.308752,-0.232661 -0.370561,-0.671373 -0.137896,-0.980125 0.159955,-0.212268 0.417654,-0.307691 0.663261,-0.271039 z" />
    <path
       id="path1554"
       style="opacity:0.999;fill:#00ffff;stroke:#000000;stroke-width:0.1;stroke-linecap:square;stop-color:#000000"
       d="M 52.000294,111.1 A 49.450001,49.450001 0 0 0 2.5500821,160.55022 49.450001,49.450001 0 0 0 52.000294,209.99991 49.450001,49.450001 0 0 0 101.44998,160.55022 49.450001,49.450001 0 0 0 52.000294,111.1 Z m 0,10.50014 a 38.950001,38.950001 0 0 1 38.94956,38.95008 38.950001,38.950001 0 0 1 -38.94956,38.95007 38.950001,38.950001 0 0 1 -38.950078,-38.95007 38.950001,38.950001 0 0 1 38.950078,-38.95008 z" />
    <path
       id="path1568"
       style="opacity:0.999;fill:#00ffff;stroke:#000000;stroke-width:0.0999999;stroke-linecap:square;stop-color:#000000"
       d="m 141.0342,245.63826 c 1.91804,0.23551 3.66385,-1.12846 3.89934,-3.04651 l 0.22131,-1.80237 a 50.449997,50.449997 0 0 0 53.23182,-44.17999 50.449997,50.449997 0 0 0 -2.32224,-22.41724 l 0.60586,-0.25727 c 1.77883,-0.75506 2.60862,-2.80955 1.85355,-4.58837 -0.75507,-1.77884 -2.80905,-2.60856 -4.58788,-1.85348 l -0.59375,0.25198 a 50.449997,50.449997 0 0 0 -38.88132,-27.35806 50.449997,50.449997 0 0 0 -44.67826,17.5137 l -1.17376,-0.88447 c -1.54331,-1.16299 -3.73752,-0.85488 -4.90049,0.68845 -1.16299,1.54333 -0.8543,3.73708 0.68903,4.90005 l 1.24758,0.9404 a 50.449997,50.449997 0 0 0 -7.40601,20.76771 50.449997,50.449997 0 0 0 39.9758,55.57655 l -0.22709,1.84957 c -0.23551,1.91804 1.12847,3.66385 3.04651,3.89935 z m 0.34114,-2.77844 c -0.38371,-0.0471 -0.65683,-0.39611 -0.60972,-0.77982 0.0471,-0.38372 0.39662,-0.65678 0.78033,-0.60966 0.38372,0.0471 0.65627,0.39655 0.60915,0.78027 -0.0471,0.38371 -0.39604,0.65632 -0.77976,0.60921 z m 0.71946,-5.85952 a 46.450001,46.450001 0 0 1 -40.44282,-51.76445 46.450001,46.450001 0 0 1 51.76452,-40.44335 46.450001,46.450001 0 0 1 40.44276,51.76497 46.450001,46.450001 0 0 1 -51.76446,40.44283 z m 53.14178,-65.58956 c -0.0916,-0.009 -0.18077,-0.0356 -0.26162,-0.0785 a 50.449997,50.449997 0 0 0 -0.33845,-0.83085 c 0.0598,-0.18757 0.19755,-0.34882 0.393,-0.43178 0.35585,-0.15107 0.76665,0.0146 0.91771,0.3704 0.15105,0.35586 -0.0146,0.76717 -0.37046,0.91822 -0.11121,0.0472 -0.22782,0.0633 -0.34018,0.0525 z m -88.83746,-10.90787 c -0.11164,-0.0167 -0.2209,-0.0604 -0.31739,-0.13317 -0.30874,-0.23266 -0.37048,-0.67189 -0.13783,-0.98064 0.23266,-0.30875 0.67182,-0.36998 0.98058,-0.13732 0.30875,0.23266 0.37056,0.67138 0.13789,0.98012 -0.15994,0.21227 -0.41765,0.3077 -0.66325,0.27104 z" />
    <path
       id="path1570"
       style="opacity:0.999;fill:#00ffff;stroke:#000000;stroke-width:0.1;stroke-linecap:square;stop-color:#000000"
       d="M 147.99926,138.89991 A 49.450001,49.450001 0 0 0 197.44948,89.44969 49.450001,49.450001 0 0 0 147.99926,40 49.450001,49.450001 0 0 0 98.549573,89.44969 49.450001,49.450001 0 0 0 147.99926,138.89991 Z m 0,-10.50014 a 38.950001,38.950001 0 0 1 -38.94956,-38.95008 38.950001,38.950001 0 0 1 38.94956,-38.95007 38.950001,38.950001 0 0 1 38.95008,38.95007 38.950001,38.950001 0 0 1 -38.95008,38.95008 z" />
  </g>
</svg>
