<?xml version="1.0" encoding="UTF-8" standalone="no"?>
<!-- Created with Inkscape (http://www.inkscape.org/) -->

<svg
   width="230cm"
   height="230cm"
   viewBox="0 0 2300 2300"
   version="1.1"
   id="svg10629"
   inkscape:version="1.2.2 (b0a8486541, 2022-12-01)"
   sodipodi:docname="mask_hooks2.svg"
   xmlns:inkscape="http://www.inkscape.org/namespaces/inkscape"
   xmlns:sodipodi="http://sodipodi.sourceforge.net/DTD/sodipodi-0.dtd"
   xmlns="http://www.w3.org/2000/svg"
   xmlns:svg="http://www.w3.org/2000/svg">
  <sodipodi:namedview
     id="namedview10631"
     pagecolor="#ffffff"
     bordercolor="#666666"
     borderopacity="1.0"
     inkscape:showpageshadow="2"
     inkscape:pageopacity="0.0"
     inkscape:pagecheckerboard="0"
     inkscape:deskcolor="#d1d1d1"
     inkscape:document-units="mm"
     showgrid="false"
     showguides="true"
     inkscape:zoom="0.11313708"
     inkscape:cx="5926.4387"
     inkscape:cy="3676.9553"
     inkscape:window-width="1920"
     inkscape:window-height="1011"
     inkscape:window-x="0"
     inkscape:window-y="32"
     inkscape:window-maximized="1"
     inkscape:current-layer="layer1">
    <sodipodi:guide
       position="1150,2300.0001"
       orientation="-1,0"
       id="guide11842"
       inkscape:locked="false"
       inkscape:label=""
       inkscape:color="rgb(0,134,229)" />
    <sodipodi:guide
       position="0,1150"
       orientation="0,1"
       id="guide12572"
       inkscape:locked="false"
       inkscape:label=""
       inkscape:color="rgb(0,134,229)" />
  </sodipodi:namedview>
  <defs
     id="defs10626" />
  <g
     inkscape:label="Layer 1"
     inkscape:groupmode="layer"
     id="layer1">
    <path
       id="path12861"
       style="fill:#f9f9f9;stroke:#000000;stroke-width:0.1;stop-color:#000000;stroke-dasharray:none"
       d="M 1150.0001 30.47876 A 1119.5212 1119.5212 0 0 0 30.47876 1150.0001 A 1119.5212 1119.5212 0 0 0 1150.0001 2269.5214 A 1119.5212 1119.5212 0 0 0 2269.5214 1150.0001 A 1119.5212 1119.5212 0 0 0 1150.0001 30.47876 z M 1150.0001 130.47886 A 1019.5212 1019.5212 0 0 1 2169.5213 1150.0001 A 1019.5212 1019.5212 0 0 1 1150.0001 2169.5213 A 1019.5212 1019.5212 0 0 1 130.47886 1150.0001 A 1019.5212 1019.5212 0 0 1 1150.0001 130.47886 z " />
    <g
       id="g16541"
       inkscape:transform-center-x="-139.60057"
       inkscape:transform-center-y="-1060.3711"
       transform="rotate(7.5,1150,1150)">
      <circle
         style="fill:none;stroke:#000000;stroke-width:0.1;stroke-dasharray:none;stop-color:#000000"
         id="path16109"
         cx="1150.0001"
         cy="80.478806"
         r="1.9718378" />
      <path
         style="fill:none;stroke:#000000;stroke-width:0.1;stroke-linecap:butt;stroke-linejoin:miter;stroke-dasharray:none;stroke-opacity:1"
         d="m 1146.028,80.478804 h 7.944"
         id="path16523" />
      <path
         style="fill:none;stroke:#000000;stroke-width:0.1;stroke-linecap:butt;stroke-linejoin:miter;stroke-dasharray:none;stroke-opacity:1"
         d="m 1150.0001,76.507003 v 7.944"
         id="path16525" />
    </g>
    <g
       id="g16657"
       inkscape:transform-center-x="-409.28808"
       inkscape:transform-center-y="-988.10854"
       transform="rotate(22.5,1150,1150)">
      <circle
         style="fill:none;stroke:#000000;stroke-width:0.1;stroke-dasharray:none;stop-color:#000000"
         id="circle16651"
         cx="1150.0001"
         cy="80.478806"
         r="1.9718378" />
      <path
         style="fill:none;stroke:#000000;stroke-width:0.1;stroke-linecap:butt;stroke-linejoin:miter;stroke-dasharray:none;stroke-opacity:1"
         d="m 1146.028,80.478804 h 7.944"
         id="path16653" />
      <path
         style="fill:none;stroke:#000000;stroke-width:0.1;stroke-linecap:butt;stroke-linejoin:miter;stroke-dasharray:none;stroke-opacity:1"
         d="m 1150.0001,76.507003 v 7.944"
         id="path16655" />
    </g>
    <g
       id="g16665"
       inkscape:transform-center-x="-651.08329"
       inkscape:transform-center-y="-848.50801"
       transform="rotate(37.5,1150,1150)">
      <circle
         style="fill:none;stroke:#000000;stroke-width:0.1;stroke-dasharray:none;stop-color:#000000"
         id="circle16659"
         cx="1150.0001"
         cy="80.478806"
         r="1.9718378" />
      <path
         style="fill:none;stroke:#000000;stroke-width:0.1;stroke-linecap:butt;stroke-linejoin:miter;stroke-dasharray:none;stroke-opacity:1"
         d="m 1146.028,80.478804 h 7.944"
         id="path16661" />
      <path
         style="fill:none;stroke:#000000;stroke-width:0.1;stroke-linecap:butt;stroke-linejoin:miter;stroke-dasharray:none;stroke-opacity:1"
         d="m 1150.0001,76.507003 v 7.944"
         id="path16663" />
    </g>
    <g
       id="g16673"
       inkscape:transform-center-x="-848.50815"
       inkscape:transform-center-y="-651.08327"
       transform="rotate(52.5,1150,1150)">
      <circle
         style="fill:none;stroke:#000000;stroke-width:0.1;stroke-dasharray:none;stop-color:#000000"
         id="circle16667"
         cx="1150.0001"
         cy="80.478806"
         r="1.9718378" />
      <path
         style="fill:none;stroke:#000000;stroke-width:0.1;stroke-linecap:butt;stroke-linejoin:miter;stroke-dasharray:none;stroke-opacity:1"
         d="m 1146.028,80.478804 h 7.944"
         id="path16669" />
      <path
         style="fill:none;stroke:#000000;stroke-width:0.1;stroke-linecap:butt;stroke-linejoin:miter;stroke-dasharray:none;stroke-opacity:1"
         d="m 1150.0001,76.507003 v 7.944"
         id="path16671" />
    </g>
    <g
       id="g16681"
       inkscape:transform-center-x="-988.10863"
       inkscape:transform-center-y="-409.28806"
       transform="rotate(67.5,1150,1150)">
      <circle
         style="fill:none;stroke:#000000;stroke-width:0.1;stroke-dasharray:none;stop-color:#000000"
         id="circle16675"
         cx="1150.0001"
         cy="80.478806"
         r="1.9718378" />
      <path
         style="fill:none;stroke:#000000;stroke-width:0.1;stroke-linecap:butt;stroke-linejoin:miter;stroke-dasharray:none;stroke-opacity:1"
         d="m 1146.028,80.478804 h 7.944"
         id="path16677" />
      <path
         style="fill:none;stroke:#000000;stroke-width:0.1;stroke-linecap:butt;stroke-linejoin:miter;stroke-dasharray:none;stroke-opacity:1"
         d="m 1150.0001,76.507003 v 7.944"
         id="path16679" />
    </g>
    <g
       id="g16689"
       inkscape:transform-center-x="-1060.3711"
       inkscape:transform-center-y="-139.60055"
       transform="rotate(82.5,1150,1150)">
      <circle
         style="fill:none;stroke:#000000;stroke-width:0.1;stroke-dasharray:none;stop-color:#000000"
         id="circle16683"
         cx="1150.0001"
         cy="80.478806"
         r="1.9718378" />
      <path
         style="fill:none;stroke:#000000;stroke-width:0.1;stroke-linecap:butt;stroke-linejoin:miter;stroke-dasharray:none;stroke-opacity:1"
         d="m 1146.028,80.478804 h 7.944"
         id="path16685" />
      <path
         style="fill:none;stroke:#000000;stroke-width:0.1;stroke-linecap:butt;stroke-linejoin:miter;stroke-dasharray:none;stroke-opacity:1"
         d="m 1150.0001,76.507003 v 7.944"
         id="path16687" />
    </g>
    <g
       id="g16697"
       inkscape:transform-center-x="-1060.3711"
       inkscape:transform-center-y="139.60051"
       transform="rotate(97.5,1150,1150)">
      <circle
         style="fill:none;stroke:#000000;stroke-width:0.1;stroke-dasharray:none;stop-color:#000000"
         id="circle16691"
         cx="1150.0001"
         cy="80.478806"
         r="1.9718378" />
      <path
         style="fill:none;stroke:#000000;stroke-width:0.1;stroke-linecap:butt;stroke-linejoin:miter;stroke-dasharray:none;stroke-opacity:1"
         d="m 1146.028,80.478804 h 7.944"
         id="path16693" />
      <path
         style="fill:none;stroke:#000000;stroke-width:0.1;stroke-linecap:butt;stroke-linejoin:miter;stroke-dasharray:none;stroke-opacity:1"
         d="m 1150.0001,76.507003 v 7.944"
         id="path16695" />
    </g>
    <g
       id="g16705"
       inkscape:transform-center-x="-988.10854"
       inkscape:transform-center-y="409.28802"
       transform="rotate(112.5,1150,1150)">
      <circle
         style="fill:none;stroke:#000000;stroke-width:0.1;stroke-dasharray:none;stop-color:#000000"
         id="circle16699"
         cx="1150.0001"
         cy="80.478806"
         r="1.9718378" />
      <path
         style="fill:none;stroke:#000000;stroke-width:0.1;stroke-linecap:butt;stroke-linejoin:miter;stroke-dasharray:none;stroke-opacity:1"
         d="m 1146.028,80.478804 h 7.944"
         id="path16701" />
      <path
         style="fill:none;stroke:#000000;stroke-width:0.1;stroke-linecap:butt;stroke-linejoin:miter;stroke-dasharray:none;stroke-opacity:1"
         d="m 1150.0001,76.507003 v 7.944"
         id="path16703" />
    </g>
    <g
       id="g16713"
       inkscape:transform-center-x="-848.50801"
       inkscape:transform-center-y="651.08323"
       transform="rotate(127.5,1150,1150)">
      <circle
         style="fill:none;stroke:#000000;stroke-width:0.1;stroke-dasharray:none;stop-color:#000000"
         id="circle16707"
         cx="1150.0001"
         cy="80.478806"
         r="1.9718378" />
      <path
         style="fill:none;stroke:#000000;stroke-width:0.1;stroke-linecap:butt;stroke-linejoin:miter;stroke-dasharray:none;stroke-opacity:1"
         d="m 1146.028,80.478804 h 7.944"
         id="path16709" />
      <path
         style="fill:none;stroke:#000000;stroke-width:0.1;stroke-linecap:butt;stroke-linejoin:miter;stroke-dasharray:none;stroke-opacity:1"
         d="m 1150.0001,76.507003 v 7.944"
         id="path16711" />
    </g>
    <g
       id="g16721"
       inkscape:transform-center-x="-651.08327"
       inkscape:transform-center-y="848.50809"
       transform="rotate(142.5,1150,1150)">
      <circle
         style="fill:none;stroke:#000000;stroke-width:0.1;stroke-dasharray:none;stop-color:#000000"
         id="circle16715"
         cx="1150.0001"
         cy="80.478806"
         r="1.9718378" />
      <path
         style="fill:none;stroke:#000000;stroke-width:0.1;stroke-linecap:butt;stroke-linejoin:miter;stroke-dasharray:none;stroke-opacity:1"
         d="m 1146.028,80.478804 h 7.944"
         id="path16717" />
      <path
         style="fill:none;stroke:#000000;stroke-width:0.1;stroke-linecap:butt;stroke-linejoin:miter;stroke-dasharray:none;stroke-opacity:1"
         d="m 1150.0001,76.507003 v 7.944"
         id="path16719" />
    </g>
    <g
       id="g16729"
       inkscape:transform-center-x="-409.28806"
       inkscape:transform-center-y="988.10857"
       transform="rotate(157.5,1150,1150)">
      <circle
         style="fill:none;stroke:#000000;stroke-width:0.1;stroke-dasharray:none;stop-color:#000000"
         id="circle16723"
         cx="1150.0001"
         cy="80.478806"
         r="1.9718378" />
      <path
         style="fill:none;stroke:#000000;stroke-width:0.1;stroke-linecap:butt;stroke-linejoin:miter;stroke-dasharray:none;stroke-opacity:1"
         d="m 1146.028,80.478804 h 7.944"
         id="path16725" />
      <path
         style="fill:none;stroke:#000000;stroke-width:0.1;stroke-linecap:butt;stroke-linejoin:miter;stroke-dasharray:none;stroke-opacity:1"
         d="m 1150.0001,76.507003 v 7.944"
         id="path16727" />
    </g>
    <g
       id="g16737"
       inkscape:transform-center-x="-139.60055"
       inkscape:transform-center-y="1060.3711"
       transform="rotate(172.5,1150,1150)">
      <circle
         style="fill:none;stroke:#000000;stroke-width:0.1;stroke-dasharray:none;stop-color:#000000"
         id="circle16731"
         cx="1150.0001"
         cy="80.478806"
         r="1.9718378" />
      <path
         style="fill:none;stroke:#000000;stroke-width:0.1;stroke-linecap:butt;stroke-linejoin:miter;stroke-dasharray:none;stroke-opacity:1"
         d="m 1146.028,80.478804 h 7.944"
         id="path16733" />
      <path
         style="fill:none;stroke:#000000;stroke-width:0.1;stroke-linecap:butt;stroke-linejoin:miter;stroke-dasharray:none;stroke-opacity:1"
         d="m 1150.0001,76.507003 v 7.944"
         id="path16735" />
    </g>
    <g
       id="g16745"
       inkscape:transform-center-x="139.60051"
       inkscape:transform-center-y="1060.3711"
       transform="rotate(-172.5,1150,1150)">
      <circle
         style="fill:none;stroke:#000000;stroke-width:0.1;stroke-dasharray:none;stop-color:#000000"
         id="circle16739"
         cx="1150.0001"
         cy="80.478806"
         r="1.9718378" />
      <path
         style="fill:none;stroke:#000000;stroke-width:0.1;stroke-linecap:butt;stroke-linejoin:miter;stroke-dasharray:none;stroke-opacity:1"
         d="m 1146.028,80.478804 h 7.944"
         id="path16741" />
      <path
         style="fill:none;stroke:#000000;stroke-width:0.1;stroke-linecap:butt;stroke-linejoin:miter;stroke-dasharray:none;stroke-opacity:1"
         d="m 1150.0001,76.507003 v 7.944"
         id="path16743" />
    </g>
    <g
       id="g16753"
       inkscape:transform-center-x="409.28802"
       inkscape:transform-center-y="988.10854"
       transform="rotate(-157.5,1150,1150)">
      <circle
         style="fill:none;stroke:#000000;stroke-width:0.1;stroke-dasharray:none;stop-color:#000000"
         id="circle16747"
         cx="1150.0001"
         cy="80.478806"
         r="1.9718378" />
      <path
         style="fill:none;stroke:#000000;stroke-width:0.1;stroke-linecap:butt;stroke-linejoin:miter;stroke-dasharray:none;stroke-opacity:1"
         d="m 1146.028,80.478804 h 7.944"
         id="path16749" />
      <path
         style="fill:none;stroke:#000000;stroke-width:0.1;stroke-linecap:butt;stroke-linejoin:miter;stroke-dasharray:none;stroke-opacity:1"
         d="m 1150.0001,76.507003 v 7.944"
         id="path16751" />
    </g>
    <g
       id="g16761"
       inkscape:transform-center-x="651.08323"
       inkscape:transform-center-y="848.50801"
       transform="rotate(-142.5,1150,1150)">
      <circle
         style="fill:none;stroke:#000000;stroke-width:0.1;stroke-dasharray:none;stop-color:#000000"
         id="circle16755"
         cx="1150.0001"
         cy="80.478806"
         r="1.9718378" />
      <path
         style="fill:none;stroke:#000000;stroke-width:0.1;stroke-linecap:butt;stroke-linejoin:miter;stroke-dasharray:none;stroke-opacity:1"
         d="m 1146.028,80.478804 h 7.944"
         id="path16757" />
      <path
         style="fill:none;stroke:#000000;stroke-width:0.1;stroke-linecap:butt;stroke-linejoin:miter;stroke-dasharray:none;stroke-opacity:1"
         d="m 1150.0001,76.507003 v 7.944"
         id="path16759" />
    </g>
    <g
       id="g16769"
       inkscape:transform-center-x="848.50809"
       inkscape:transform-center-y="651.08327"
       transform="rotate(-127.5,1150,1150)">
      <circle
         style="fill:none;stroke:#000000;stroke-width:0.1;stroke-dasharray:none;stop-color:#000000"
         id="circle16763"
         cx="1150.0001"
         cy="80.478806"
         r="1.9718378" />
      <path
         style="fill:none;stroke:#000000;stroke-width:0.1;stroke-linecap:butt;stroke-linejoin:miter;stroke-dasharray:none;stroke-opacity:1"
         d="m 1146.028,80.478804 h 7.944"
         id="path16765" />
      <path
         style="fill:none;stroke:#000000;stroke-width:0.1;stroke-linecap:butt;stroke-linejoin:miter;stroke-dasharray:none;stroke-opacity:1"
         d="m 1150.0001,76.507003 v 7.944"
         id="path16767" />
    </g>
    <g
       id="g16777"
       inkscape:transform-center-x="988.10857"
       inkscape:transform-center-y="409.28806"
       transform="rotate(-112.5,1150,1150)">
      <circle
         style="fill:none;stroke:#000000;stroke-width:0.1;stroke-dasharray:none;stop-color:#000000"
         id="circle16771"
         cx="1150.0001"
         cy="80.478806"
         r="1.9718378" />
      <path
         style="fill:none;stroke:#000000;stroke-width:0.1;stroke-linecap:butt;stroke-linejoin:miter;stroke-dasharray:none;stroke-opacity:1"
         d="m 1146.028,80.478804 h 7.944"
         id="path16773" />
      <path
         style="fill:none;stroke:#000000;stroke-width:0.1;stroke-linecap:butt;stroke-linejoin:miter;stroke-dasharray:none;stroke-opacity:1"
         d="m 1150.0001,76.507003 v 7.944"
         id="path16775" />
    </g>
    <g
       id="g16785"
       inkscape:transform-center-x="1060.3711"
       inkscape:transform-center-y="139.60055"
       transform="rotate(-97.5,1150,1150)">
      <circle
         style="fill:none;stroke:#000000;stroke-width:0.1;stroke-dasharray:none;stop-color:#000000"
         id="circle16779"
         cx="1150.0001"
         cy="80.478806"
         r="1.9718378" />
      <path
         style="fill:none;stroke:#000000;stroke-width:0.1;stroke-linecap:butt;stroke-linejoin:miter;stroke-dasharray:none;stroke-opacity:1"
         d="m 1146.028,80.478804 h 7.944"
         id="path16781" />
      <path
         style="fill:none;stroke:#000000;stroke-width:0.1;stroke-linecap:butt;stroke-linejoin:miter;stroke-dasharray:none;stroke-opacity:1"
         d="m 1150.0001,76.507003 v 7.944"
         id="path16783" />
    </g>
    <g
       id="g16793"
       inkscape:transform-center-x="1060.3711"
       inkscape:transform-center-y="-139.60051"
       transform="rotate(-82.5,1150,1150)">
      <circle
         style="fill:none;stroke:#000000;stroke-width:0.1;stroke-dasharray:none;stop-color:#000000"
         id="circle16787"
         cx="1150.0001"
         cy="80.478806"
         r="1.9718378" />
      <path
         style="fill:none;stroke:#000000;stroke-width:0.1;stroke-linecap:butt;stroke-linejoin:miter;stroke-dasharray:none;stroke-opacity:1"
         d="m 1146.028,80.478804 h 7.944"
         id="path16789" />
      <path
         style="fill:none;stroke:#000000;stroke-width:0.1;stroke-linecap:butt;stroke-linejoin:miter;stroke-dasharray:none;stroke-opacity:1"
         d="m 1150.0001,76.507003 v 7.944"
         id="path16791" />
    </g>
    <g
       id="g16801"
       inkscape:transform-center-x="988.10854"
       inkscape:transform-center-y="-409.28802"
       transform="rotate(-67.5,1150,1150)">
      <circle
         style="fill:none;stroke:#000000;stroke-width:0.1;stroke-dasharray:none;stop-color:#000000"
         id="circle16795"
         cx="1150.0001"
         cy="80.478806"
         r="1.9718378" />
      <path
         style="fill:none;stroke:#000000;stroke-width:0.1;stroke-linecap:butt;stroke-linejoin:miter;stroke-dasharray:none;stroke-opacity:1"
         d="m 1146.028,80.478804 h 7.944"
         id="path16797" />
      <path
         style="fill:none;stroke:#000000;stroke-width:0.1;stroke-linecap:butt;stroke-linejoin:miter;stroke-dasharray:none;stroke-opacity:1"
         d="m 1150.0001,76.507003 v 7.944"
         id="path16799" />
    </g>
    <g
       id="g16809"
       inkscape:transform-center-x="848.50801"
       inkscape:transform-center-y="-651.08323"
       transform="rotate(-52.5,1150,1150)">
      <circle
         style="fill:none;stroke:#000000;stroke-width:0.1;stroke-dasharray:none;stop-color:#000000"
         id="circle16803"
         cx="1150.0001"
         cy="80.478806"
         r="1.9718378" />
      <path
         style="fill:none;stroke:#000000;stroke-width:0.1;stroke-linecap:butt;stroke-linejoin:miter;stroke-dasharray:none;stroke-opacity:1"
         d="m 1146.028,80.478804 h 7.944"
         id="path16805" />
      <path
         style="fill:none;stroke:#000000;stroke-width:0.1;stroke-linecap:butt;stroke-linejoin:miter;stroke-dasharray:none;stroke-opacity:1"
         d="m 1150.0001,76.507003 v 7.944"
         id="path16807" />
    </g>
    <g
       id="g16817"
       inkscape:transform-center-x="651.08327"
       inkscape:transform-center-y="-848.50809"
       transform="rotate(-37.5,1150,1150)">
      <circle
         style="fill:none;stroke:#000000;stroke-width:0.1;stroke-dasharray:none;stop-color:#000000"
         id="circle16811"
         cx="1150.0001"
         cy="80.478806"
         r="1.9718378" />
      <path
         style="fill:none;stroke:#000000;stroke-width:0.1;stroke-linecap:butt;stroke-linejoin:miter;stroke-dasharray:none;stroke-opacity:1"
         d="m 1146.028,80.478804 h 7.944"
         id="path16813" />
      <path
         style="fill:none;stroke:#000000;stroke-width:0.1;stroke-linecap:butt;stroke-linejoin:miter;stroke-dasharray:none;stroke-opacity:1"
         d="m 1150.0001,76.507003 v 7.944"
         id="path16815" />
    </g>
    <g
       id="g16825"
       inkscape:transform-center-x="409.28806"
       inkscape:transform-center-y="-988.10857"
       transform="rotate(-22.5,1150,1150)">
      <circle
         style="fill:none;stroke:#000000;stroke-width:0.1;stroke-dasharray:none;stop-color:#000000"
         id="circle16819"
         cx="1150.0001"
         cy="80.478806"
         r="1.9718378" />
      <path
         style="fill:none;stroke:#000000;stroke-width:0.1;stroke-linecap:butt;stroke-linejoin:miter;stroke-dasharray:none;stroke-opacity:1"
         d="m 1146.028,80.478804 h 7.944"
         id="path16821" />
      <path
         style="fill:none;stroke:#000000;stroke-width:0.1;stroke-linecap:butt;stroke-linejoin:miter;stroke-dasharray:none;stroke-opacity:1"
         d="m 1150.0001,76.507003 v 7.944"
         id="path16823" />
    </g>
    <g
       id="g16833"
       inkscape:transform-center-x="139.60055"
       inkscape:transform-center-y="-1060.3711"
       transform="rotate(-7.5,1150,1150)">
      <circle
         style="fill:none;stroke:#000000;stroke-width:0.1;stroke-dasharray:none;stop-color:#000000"
         id="circle16827"
         cx="1150.0001"
         cy="80.478806"
         r="1.9718378" />
      <path
         style="fill:none;stroke:#000000;stroke-width:0.1;stroke-linecap:butt;stroke-linejoin:miter;stroke-dasharray:none;stroke-opacity:1"
         d="m 1146.028,80.478804 h 7.944"
         id="path16829" />
      <path
         style="fill:none;stroke:#000000;stroke-width:0.1;stroke-linecap:butt;stroke-linejoin:miter;stroke-dasharray:none;stroke-opacity:1"
         d="m 1150.0001,76.507003 v 7.944"
         id="path16831" />
    </g>
    <path
       style="fill:none;stroke:#000000;stroke-width:0.1;stroke-linecap:butt;stroke-linejoin:miter;stroke-dasharray:none;stroke-opacity:1"
       d="M 1150.0001,30.478759 V 130.47886"
       id="path16843"
       inkscape:transform-center-x="-0.00013967285"
       inkscape:transform-center-y="-1069.5212" />
    <path
       style="fill:none;stroke:#000000;stroke-width:0.1;stroke-linecap:butt;stroke-linejoin:miter;stroke-dasharray:none;stroke-opacity:1"
       d="m 1439.7535,68.625557 -25.8819,96.592683"
       id="path16845"
       inkscape:transform-center-x="-276.81259"
       inkscape:transform-center-y="-1033.0781" />
    <path
       style="fill:none;stroke:#000000;stroke-width:0.1;stroke-linecap:butt;stroke-linejoin:miter;stroke-dasharray:none;stroke-opacity:1"
       d="m 1709.7607,180.46623 -50,86.60264"
       id="path16847"
       inkscape:transform-center-x="-534.76074"
       inkscape:transform-center-y="-926.23245" />
    <path
       style="fill:none;stroke:#000000;stroke-width:0.1;stroke-linecap:butt;stroke-linejoin:miter;stroke-dasharray:none;stroke-opacity:1"
       d="m 1941.6211,358.37903 -70.7107,70.71078"
       id="path16849"
       inkscape:transform-center-x="-756.26579"
       inkscape:transform-center-y="-756.26558" />
    <path
       style="fill:none;stroke:#000000;stroke-width:0.1;stroke-linecap:butt;stroke-linejoin:miter;stroke-dasharray:none;stroke-opacity:1"
       d="m 2119.5338,590.23949 -86.6025,50.00009"
       id="path16851"
       inkscape:transform-center-x="-926.23259"
       inkscape:transform-center-y="-534.76046" />
    <path
       style="fill:none;stroke:#000000;stroke-width:0.1;stroke-linecap:butt;stroke-linejoin:miter;stroke-dasharray:none;stroke-opacity:1"
       d="m 2231.3744,860.24669 -96.5926,25.882"
       id="path16853"
       inkscape:transform-center-x="-1033.0781"
       inkscape:transform-center-y="-276.81231" />
    <path
       style="fill:none;stroke:#000000;stroke-width:0.1;stroke-linecap:butt;stroke-linejoin:miter;stroke-dasharray:none;stroke-opacity:1"
       d="m 2269.5211,1150.0001 -100,10e-5"
       id="path16855"
       inkscape:transform-center-x="-1069.5211"
       inkscape:transform-center-y="0.00015" />
    <path
       style="fill:none;stroke:#000000;stroke-width:0.1;stroke-linecap:butt;stroke-linejoin:miter;stroke-dasharray:none;stroke-opacity:1"
       d="m 2231.3743,1439.7535 -96.5926,-25.8818"
       id="path16857"
       inkscape:transform-center-x="-1033.078"
       inkscape:transform-center-y="276.8126" />
    <path
       style="fill:none;stroke:#000000;stroke-width:0.1;stroke-linecap:butt;stroke-linejoin:miter;stroke-dasharray:none;stroke-opacity:1"
       d="m 2119.5336,1709.7607 -86.6025,-50"
       id="path16859"
       inkscape:transform-center-x="-926.23235"
       inkscape:transform-center-y="534.7607" />
    <path
       style="fill:none;stroke:#000000;stroke-width:0.1;stroke-linecap:butt;stroke-linejoin:miter;stroke-dasharray:none;stroke-opacity:1"
       d="m 1941.6208,1941.6211 -70.7106,-70.7107"
       id="path16861"
       inkscape:transform-center-x="-756.2655"
       inkscape:transform-center-y="756.26575" />
    <path
       style="fill:none;stroke:#000000;stroke-width:0.1;stroke-linecap:butt;stroke-linejoin:miter;stroke-dasharray:none;stroke-opacity:1"
       d="m 1709.7604,2119.5338 -50,-86.6025"
       id="path16863"
       inkscape:transform-center-x="-534.7604"
       inkscape:transform-center-y="926.23255" />
    <path
       style="fill:none;stroke:#000000;stroke-width:0.1;stroke-linecap:butt;stroke-linejoin:miter;stroke-dasharray:none;stroke-opacity:1"
       d="m 1439.7532,2231.3744 -25.8819,-96.5926"
       id="path16865"
       inkscape:transform-center-x="-276.81225"
       inkscape:transform-center-y="1033.0781" />
    <path
       style="fill:none;stroke:#000000;stroke-width:0.1;stroke-linecap:butt;stroke-linejoin:miter;stroke-dasharray:none;stroke-opacity:1"
       d="m 1149.9998,2269.5211 v -100"
       id="path16867"
       inkscape:transform-center-x="0.0002"
       inkscape:transform-center-y="1069.5211" />
    <path
       style="fill:none;stroke:#000000;stroke-width:0.1;stroke-linecap:butt;stroke-linejoin:miter;stroke-dasharray:none;stroke-opacity:1"
       d="m 860.24642,2231.3743 25.88191,-96.5926"
       id="path16869"
       inkscape:transform-center-x="276.81263"
       inkscape:transform-center-y="1033.078" />
    <path
       style="fill:none;stroke:#000000;stroke-width:0.1;stroke-linecap:butt;stroke-linejoin:miter;stroke-dasharray:none;stroke-opacity:1"
       d="m 590.23927,2119.5336 50.00001,-86.6025"
       id="path16871"
       inkscape:transform-center-x="534.76073"
       inkscape:transform-center-y="926.23235" />
    <path
       style="fill:none;stroke:#000000;stroke-width:0.1;stroke-linecap:butt;stroke-linejoin:miter;stroke-dasharray:none;stroke-opacity:1"
       d="m 358.37889,1941.6208 70.71068,-70.7106"
       id="path16873"
       inkscape:transform-center-x="756.26577"
       inkscape:transform-center-y="756.2655" />
    <path
       style="fill:none;stroke:#000000;stroke-width:0.1;stroke-linecap:butt;stroke-linejoin:miter;stroke-dasharray:none;stroke-opacity:1"
       d="m 180.46619,1709.7604 86.60252,-50"
       id="path16875"
       inkscape:transform-center-x="926.23255"
       inkscape:transform-center-y="534.7604" />
    <path
       style="fill:none;stroke:#000000;stroke-width:0.1;stroke-linecap:butt;stroke-linejoin:miter;stroke-dasharray:none;stroke-opacity:1"
       d="m 68.625601,1439.7532 96.592559,-25.8819"
       id="path16877"
       inkscape:transform-center-x="1033.0781"
       inkscape:transform-center-y="276.81225" />
    <path
       style="fill:none;stroke:#000000;stroke-width:0.1;stroke-linecap:butt;stroke-linejoin:miter;stroke-dasharray:none;stroke-opacity:1"
       d="M 30.478893,1149.9998 H 130.47887"
       id="path16879"
       inkscape:transform-center-x="1069.5211"
       inkscape:transform-center-y="-0.0002" />
    <path
       style="fill:none;stroke:#000000;stroke-width:0.1;stroke-linecap:butt;stroke-linejoin:miter;stroke-dasharray:none;stroke-opacity:1"
       d="m 68.625701,860.24643 96.592559,25.8819"
       id="path16881"
       inkscape:transform-center-x="1033.078"
       inkscape:transform-center-y="-276.81262" />
    <path
       style="fill:none;stroke:#000000;stroke-width:0.1;stroke-linecap:butt;stroke-linejoin:miter;stroke-dasharray:none;stroke-opacity:1"
       d="m 180.46638,590.23929 86.60252,49.99998"
       id="path16883"
       inkscape:transform-center-x="926.23234"
       inkscape:transform-center-y="-534.76072" />
    <path
       style="fill:none;stroke:#000000;stroke-width:0.1;stroke-linecap:butt;stroke-linejoin:miter;stroke-dasharray:none;stroke-opacity:1"
       d="m 358.37917,358.37891 70.71066,70.71066"
       id="path16885"
       inkscape:transform-center-x="756.26548"
       inkscape:transform-center-y="-756.26576" />
    <path
       style="fill:none;stroke:#000000;stroke-width:0.1;stroke-linecap:butt;stroke-linejoin:miter;stroke-dasharray:none;stroke-opacity:1"
       d="m 590.23961,180.4662 49.99999,86.60252"
       id="path16887"
       inkscape:transform-center-x="534.76038"
       inkscape:transform-center-y="-926.23254" />
    <path
       style="fill:none;stroke:#000000;stroke-width:0.1;stroke-linecap:butt;stroke-linejoin:miter;stroke-dasharray:none;stroke-opacity:1"
       d="m 860.24679,68.625617 25.8819,96.592563"
       id="path16889"
       inkscape:transform-center-x="276.81224"
       inkscape:transform-center-y="-1033.0781" />
    <g
       id="g17026"
       inkscape:transform-center-x="-4.0787485e-05"
       inkscape:transform-center-y="-1069.521"
       transform="translate(-1.3967285e-4,1069.521)">
      <circle
         style="fill:none;stroke:#000000;stroke-width:0.1;stroke-dasharray:none;stop-color:#000000"
         id="circle17020"
         cx="1150.0001"
         cy="80.478806"
         r="1.9718378" />
      <path
         style="fill:none;stroke:#000000;stroke-width:0.1;stroke-linecap:butt;stroke-linejoin:miter;stroke-dasharray:none;stroke-opacity:1"
         d="m 1146.028,80.478804 h 7.944"
         id="path17022" />
      <path
         style="fill:none;stroke:#000000;stroke-width:0.1;stroke-linecap:butt;stroke-linejoin:miter;stroke-dasharray:none;stroke-opacity:1"
         d="m 1150.0001,76.507003 v 7.944"
         id="path17024" />
    </g>
    <path
       id="path32190"
       style="opacity:0.999;fill:#f9f9f9;stroke:#000000;stroke-width:0.1;stroke-linecap:square;stroke-dasharray:none;stop-color:#000000"
       d="m 907.81274,876.23087 86.39049,49.87757 c 1.61744,0.93383 2.16779,2.98774 1.23396,4.60518 l -52.48127,90.90028 -0.61392,1.0633 -59.53358,103.1152 c -0.93383,1.6174 -2.98775,2.1678 -4.60519,1.2339 l -84.84291,-48.984 -1.32962,-0.7677 -108.90622,-62.877 c -1.61744,-0.9339 -2.16778,-2.9878 -1.23395,-4.6052 v 0 l 60.97455,-105.61106 0.75087,-1.30054 50.90334,-88.16718 c 0.93383,-1.61744 2.98775,-2.16778 4.60519,-1.23395 l 107.21588,61.90112 z"
       sodipodi:nodetypes="cssccccccsscccsscc" />
    <path
       id="path2632"
       style="opacity:0.999;fill:#f9f9f9;stroke:#000000;stroke-width:0.1;stroke-linecap:square;stroke-dasharray:none;stop-color:#000000"
       d="m 1567.2061,921.62516 50.9033,88.16714 c 0.9339,1.6175 0.3835,3.6714 -1.2339,4.6052 l -107.2159,61.9011 -1.4724,0.8501 -86.3905,49.8776 c -1.6174,0.9338 -3.6713,0.3835 -4.6052,-1.234 l -52.4812,-90.9002 -0.614,-1.0633 -59.5335,-103.11521 c -0.9339,-1.61744 -0.3835,-3.67136 1.2339,-4.60519 l 84.8429,-48.98408 1.3297,-0.76765 108.9062,-62.87704 c 1.6174,-0.93382 3.6713,-0.38348 4.6052,1.23396 v 0 l 60.9745,105.61103 z"
       sodipodi:nodetypes="ccsccscccccccssccc" />
    <path
       id="path2648"
       style="opacity:0.999;fill:#f9f9f9;stroke:#000000;stroke-width:0.1;stroke-linecap:square;stroke-dasharray:none;stop-color:#000000"
       d="m 1266,1523.3766 v 99.7551 c 0,1.8677 -1.5036,3.3713 -3.3713,3.3713 h -104.9625 l -1.2279,0 h -119.0671 c -1.8677,0 -3.3712,-1.5036 -3.3712,-3.3713 v -97.9681 -1.5353 -125.7541 c 0,-1.8677 1.5035,-3.3712 3.3712,-3.3712 v 0 h 121.9491 l 1.5017,0 h 101.8067 c 1.8677,0 3.3713,1.5035 3.3713,3.3712 v 123.8022 z"
       sodipodi:nodetypes="cssccssccsscccsscc" />
    <g
       id="g7714"
       inkscape:transform-center-x="-0.00027906453"
       inkscape:transform-center-y="114.31438"
       transform="translate(774.99996,775.00296)" />
    <g
       id="g7720"
       inkscape:transform-center-x="-98.481863"
       inkscape:transform-center-y="-56.592616"
       transform="rotate(-120,986.22406,538.77826)" />
    <g
       id="g7726"
       inkscape:transform-center-x="-0.000275589"
       inkscape:transform-center-y="114.31438"
       transform="rotate(120,538.7759,986.2247)" />
    <g
       id="g7844"
       inkscape:transform-center-x="98.366749"
       inkscape:transform-center-y="-56.314142"
       transform="rotate(-120,986.22406,538.77826)" />
    <g
       id="g7848"
       inkscape:transform-center-x="-98.371459"
       inkscape:transform-center-y="-56.315223"
       transform="translate(774.99996,775.00296)"
       style="stroke-width:0.1;stroke-dasharray:none;fill:#f9f9f9">
      <path
         id="path7846"
         style="opacity:0.999;fill:#f9f9f9;stroke:#000000;stroke-width:0.1;stroke-linecap:square;stroke-dasharray:none;stop-color:#000000"
         d="m 472.93341,312.62564 46.70305,80.89207 c 0.37589,0.65107 -0.91647,2.76475 -1.59723,3.97598 l -52.03895,90.13507 c -0.46345,0.81071 -1.91209,3.37123 -2.64467,3.37123 L 381.01429,491 h -0.96321 l -93.40612,-10e-6 c -0.75179,0 -1.93611,-2.17606 -2.64468,-3.37123 l -26.0199,-45.0673 -26.01989,-45.06729 c -0.47037,-0.80671 -1.96352,-3.34153 -1.59723,-3.97596 l 41.17065,-71.30968 0.4816,-0.83417 46.70307,-80.89206 c 0.3759,-0.65107 2.85258,-0.58869 4.24191,-0.60475 l 104.07874,-4.8e-4 c 0.93382,-0.004 3.87561,-0.0297 4.2419,0.60473 l 41.17067,71.30967 z"
         sodipodi:nodetypes="ccccsccscccccccccccc" />
    </g>
    <g
       id="g27439"
       transform="translate(774.99996,775.00296)">
      <circle
         style="fill:none;fill-opacity:1;stroke:#000000;stroke-width:0.2;stroke-dasharray:none;stop-color:#000000"
         id="circle10677"
         cx="375"
         cy="375"
         r="1.5" />
      <path
         style="fill:none;stroke:#000000;stroke-width:0.1;stroke-linecap:butt;stroke-linejoin:miter;stroke-dasharray:none;stroke-opacity:1"
         d="m 373.49998,374.99999 h 3.00001"
         id="path27022" />
      <path
         style="fill:none;stroke:#000000;stroke-width:0.1;stroke-linecap:butt;stroke-linejoin:miter;stroke-dasharray:none;stroke-opacity:1"
         d="m 374.99999,373.49998 v 3.00001"
         id="path27434" />
    </g>
    <g
       id="g28527"
       inkscape:transform-center-x="-4.0787485e-05"
       inkscape:transform-center-y="-1069.521"
       transform="translate(-3.6621094e-4,939.07637)">
      <circle
         style="fill:none;stroke:#000000;stroke-width:0.1;stroke-dasharray:none;stop-color:#000000"
         id="circle28521"
         cx="1150.0001"
         cy="80.478806"
         r="1.9718378" />
      <path
         style="fill:none;stroke:#000000;stroke-width:0.1;stroke-linecap:butt;stroke-linejoin:miter;stroke-dasharray:none;stroke-opacity:1"
         d="m 1146.028,80.478804 h 7.944"
         id="path28523" />
      <path
         style="fill:none;stroke:#000000;stroke-width:0.1;stroke-linecap:butt;stroke-linejoin:miter;stroke-dasharray:none;stroke-opacity:1"
         d="m 1150.0001,76.507003 v 7.944"
         id="path28525" />
    </g>
    <g
       id="g28535"
       inkscape:transform-center-x="-4.0787485e-05"
       inkscape:transform-center-y="-1069.521"
       transform="translate(-112.97104,1134.7481)">
      <circle
         style="fill:none;stroke:#000000;stroke-width:0.1;stroke-dasharray:none;stop-color:#000000"
         id="circle28529"
         cx="1150.0001"
         cy="80.478806"
         r="1.9718378" />
      <path
         style="fill:none;stroke:#000000;stroke-width:0.1;stroke-linecap:butt;stroke-linejoin:miter;stroke-dasharray:none;stroke-opacity:1"
         d="m 1146.028,80.478804 h 7.944"
         id="path28531" />
      <path
         style="fill:none;stroke:#000000;stroke-width:0.1;stroke-linecap:butt;stroke-linejoin:miter;stroke-dasharray:none;stroke-opacity:1"
         d="m 1150.0001,76.507003 v 7.944"
         id="path28533" />
    </g>
    <g
       id="g28543"
       inkscape:transform-center-x="-4.0787485e-05"
       inkscape:transform-center-y="-1069.521"
       transform="translate(112.97099,1134.7479)">
      <circle
         style="fill:none;stroke:#000000;stroke-width:0.1;stroke-dasharray:none;stop-color:#000000"
         id="circle28537"
         cx="1150.0001"
         cy="80.478806"
         r="1.9718378" />
      <path
         style="fill:none;stroke:#000000;stroke-width:0.1;stroke-linecap:butt;stroke-linejoin:miter;stroke-dasharray:none;stroke-opacity:1"
         d="m 1146.028,80.478804 h 7.944"
         id="path28539" />
      <path
         style="fill:none;stroke:#000000;stroke-width:0.1;stroke-linecap:butt;stroke-linejoin:miter;stroke-dasharray:none;stroke-opacity:1"
         d="m 1150.0001,76.507003 v 7.944"
         id="path28541" />
    </g>
    <g
       id="g28551"
       inkscape:transform-center-x="-4.0787485e-05"
       inkscape:transform-center-y="-1069.521"
       transform="translate(161.25632,848.82815)">
      <circle
         style="fill:none;stroke:#000000;stroke-width:0.1;stroke-dasharray:none;stop-color:#000000"
         id="circle28545"
         cx="1150.0001"
         cy="80.478806"
         r="1.9718378" />
      <path
         style="fill:none;stroke:#000000;stroke-width:0.1;stroke-linecap:butt;stroke-linejoin:miter;stroke-dasharray:none;stroke-opacity:1"
         d="m 1146.028,80.478804 h 7.944"
         id="path28547" />
      <path
         style="fill:none;stroke:#000000;stroke-width:0.1;stroke-linecap:butt;stroke-linejoin:miter;stroke-dasharray:none;stroke-opacity:1"
         d="m 1150.0001,76.507003 v 7.944"
         id="path28549" />
    </g>
    <g
       id="g28567"
       inkscape:transform-center-x="-4.0787485e-05"
       inkscape:transform-center-y="-1069.521"
       transform="translate(351.78183,738.82814)">
      <circle
         style="fill:none;stroke:#000000;stroke-width:0.1;stroke-dasharray:none;stop-color:#000000"
         id="circle28561"
         cx="1150.0001"
         cy="80.478806"
         r="1.9718378" />
      <path
         style="fill:none;stroke:#000000;stroke-width:0.1;stroke-linecap:butt;stroke-linejoin:miter;stroke-dasharray:none;stroke-opacity:1"
         d="m 1146.028,80.478804 h 7.944"
         id="path28563" />
      <path
         style="fill:none;stroke:#000000;stroke-width:0.1;stroke-linecap:butt;stroke-linejoin:miter;stroke-dasharray:none;stroke-opacity:1"
         d="m 1150.0001,76.507003 v 7.944"
         id="path28565" />
    </g>
    <g
       id="g28575"
       inkscape:transform-center-x="-4.0787485e-05"
       inkscape:transform-center-y="-1069.521"
       transform="translate(461.78193,929.35392)">
      <circle
         style="fill:none;stroke:#000000;stroke-width:0.1;stroke-dasharray:none;stop-color:#000000"
         id="circle28569"
         cx="1150.0001"
         cy="80.478806"
         r="1.9718378" />
      <path
         style="fill:none;stroke:#000000;stroke-width:0.1;stroke-linecap:butt;stroke-linejoin:miter;stroke-dasharray:none;stroke-opacity:1"
         d="m 1146.028,80.478804 h 7.944"
         id="path28571" />
      <path
         style="fill:none;stroke:#000000;stroke-width:0.1;stroke-linecap:butt;stroke-linejoin:miter;stroke-dasharray:none;stroke-opacity:1"
         d="m 1150.0001,76.507003 v 7.944"
         id="path28573" />
    </g>
    <g
       id="g28583"
       inkscape:transform-center-x="-4.0787485e-05"
       inkscape:transform-center-y="-1069.521"
       transform="translate(271.25622,1039.3539)">
      <circle
         style="fill:none;stroke:#000000;stroke-width:0.1;stroke-dasharray:none;stop-color:#000000"
         id="circle28577"
         cx="1150.0001"
         cy="80.478806"
         r="1.9718378" />
      <path
         style="fill:none;stroke:#000000;stroke-width:0.1;stroke-linecap:butt;stroke-linejoin:miter;stroke-dasharray:none;stroke-opacity:1"
         d="m 1146.028,80.478804 h 7.944"
         id="path28579" />
      <path
         style="fill:none;stroke:#000000;stroke-width:0.1;stroke-linecap:butt;stroke-linejoin:miter;stroke-dasharray:none;stroke-opacity:1"
         d="m 1150.0001,76.507003 v 7.944"
         id="path28581" />
    </g>
    <g
       id="g28781"
       inkscape:transform-center-x="-4.0787485e-05"
       inkscape:transform-center-y="-1069.521"
       transform="translate(-161.75646,849.69421)">
      <circle
         style="fill:none;stroke:#000000;stroke-width:0.1;stroke-dasharray:none;stop-color:#000000"
         id="circle28775"
         cx="1150.0001"
         cy="80.478806"
         r="1.9718378" />
      <path
         style="fill:none;stroke:#000000;stroke-width:0.1;stroke-linecap:butt;stroke-linejoin:miter;stroke-dasharray:none;stroke-opacity:1"
         d="m 1146.028,80.478804 h 7.944"
         id="path28777" />
      <path
         style="fill:none;stroke:#000000;stroke-width:0.1;stroke-linecap:butt;stroke-linejoin:miter;stroke-dasharray:none;stroke-opacity:1"
         d="m 1150.0001,76.507003 v 7.944"
         id="path28779" />
    </g>
    <g
       id="g28797"
       inkscape:transform-center-x="-4.0787485e-05"
       inkscape:transform-center-y="-1069.521"
       transform="translate(-352.28209,739.6942)">
      <circle
         style="fill:none;stroke:#000000;stroke-width:0.1;stroke-dasharray:none;stop-color:#000000"
         id="circle28791"
         cx="1150.0001"
         cy="80.478806"
         r="1.9718378" />
      <path
         style="fill:none;stroke:#000000;stroke-width:0.1;stroke-linecap:butt;stroke-linejoin:miter;stroke-dasharray:none;stroke-opacity:1"
         d="m 1146.028,80.478804 h 7.944"
         id="path28793" />
      <path
         style="fill:none;stroke:#000000;stroke-width:0.1;stroke-linecap:butt;stroke-linejoin:miter;stroke-dasharray:none;stroke-opacity:1"
         d="m 1150.0001,76.507003 v 7.944"
         id="path28795" />
    </g>
    <g
       id="g28805"
       inkscape:transform-center-x="-4.0787485e-05"
       inkscape:transform-center-y="-1069.521"
       transform="translate(-462.28199,930.21979)">
      <circle
         style="fill:none;stroke:#000000;stroke-width:0.1;stroke-dasharray:none;stop-color:#000000"
         id="circle28799"
         cx="1150.0001"
         cy="80.478806"
         r="1.9718378" />
      <path
         style="fill:none;stroke:#000000;stroke-width:0.1;stroke-linecap:butt;stroke-linejoin:miter;stroke-dasharray:none;stroke-opacity:1"
         d="m 1146.028,80.478804 h 7.944"
         id="path28801" />
      <path
         style="fill:none;stroke:#000000;stroke-width:0.1;stroke-linecap:butt;stroke-linejoin:miter;stroke-dasharray:none;stroke-opacity:1"
         d="m 1150.0001,76.507003 v 7.944"
         id="path28803" />
    </g>
    <g
       id="g28813"
       inkscape:transform-center-x="-4.0787485e-05"
       inkscape:transform-center-y="-1069.521"
       transform="translate(-271.75652,1040.22)">
      <circle
         style="fill:none;stroke:#000000;stroke-width:0.1;stroke-dasharray:none;stop-color:#000000"
         id="circle28807"
         cx="1150.0001"
         cy="80.478806"
         r="1.9718378" />
      <path
         style="fill:none;stroke:#000000;stroke-width:0.1;stroke-linecap:butt;stroke-linejoin:miter;stroke-dasharray:none;stroke-opacity:1"
         d="m 1146.028,80.478804 h 7.944"
         id="path28809" />
      <path
         style="fill:none;stroke:#000000;stroke-width:0.1;stroke-linecap:butt;stroke-linejoin:miter;stroke-dasharray:none;stroke-opacity:1"
         d="m 1150.0001,76.507003 v 7.944"
         id="path28811" />
    </g>
    <g
       id="g31306"
       inkscape:transform-center-x="-4.0787485e-05"
       inkscape:transform-center-y="-1069.521"
       transform="translate(-110.50012,1319.5241)">
      <circle
         style="fill:none;stroke:#000000;stroke-width:0.1;stroke-dasharray:none;stop-color:#000000"
         id="circle31300"
         cx="1150.0001"
         cy="80.478806"
         r="1.9718378" />
      <path
         style="fill:none;stroke:#000000;stroke-width:0.1;stroke-linecap:butt;stroke-linejoin:miter;stroke-dasharray:none;stroke-opacity:1"
         d="m 1146.028,80.478804 h 7.944"
         id="path31302" />
      <path
         style="fill:none;stroke:#000000;stroke-width:0.1;stroke-linecap:butt;stroke-linejoin:miter;stroke-dasharray:none;stroke-opacity:1"
         d="m 1150.0001,76.507003 v 7.944"
         id="path31304" />
    </g>
    <g
       id="g31314"
       inkscape:transform-center-x="-4.0787485e-05"
       inkscape:transform-center-y="-1069.521"
       transform="translate(109.49988,1319.5241)">
      <circle
         style="fill:none;stroke:#000000;stroke-width:0.1;stroke-dasharray:none;stop-color:#000000"
         id="circle31308"
         cx="1150.0001"
         cy="80.478806"
         r="1.9718378" />
      <path
         style="fill:none;stroke:#000000;stroke-width:0.1;stroke-linecap:butt;stroke-linejoin:miter;stroke-dasharray:none;stroke-opacity:1"
         d="m 1146.028,80.478804 h 7.944"
         id="path31310" />
      <path
         style="fill:none;stroke:#000000;stroke-width:0.1;stroke-linecap:butt;stroke-linejoin:miter;stroke-dasharray:none;stroke-opacity:1"
         d="m 1150.0001,76.507003 v 7.944"
         id="path31312" />
    </g>
    <g
       id="g31322"
       inkscape:transform-center-x="-4.0787485e-05"
       inkscape:transform-center-y="-1069.521"
       transform="translate(109.49988,1539.5241)">
      <circle
         style="fill:none;stroke:#000000;stroke-width:0.1;stroke-dasharray:none;stop-color:#000000"
         id="circle31316"
         cx="1150.0001"
         cy="80.478806"
         r="1.9718378" />
      <path
         style="fill:none;stroke:#000000;stroke-width:0.1;stroke-linecap:butt;stroke-linejoin:miter;stroke-dasharray:none;stroke-opacity:1"
         d="m 1146.028,80.478804 h 7.944"
         id="path31318" />
      <path
         style="fill:none;stroke:#000000;stroke-width:0.1;stroke-linecap:butt;stroke-linejoin:miter;stroke-dasharray:none;stroke-opacity:1"
         d="m 1150.0001,76.507003 v 7.944"
         id="path31320" />
    </g>
    <g
       id="g31330"
       inkscape:transform-center-x="-4.0787485e-05"
       inkscape:transform-center-y="-1069.521"
       transform="translate(-110.50012,1539.5241)">
      <circle
         style="fill:none;stroke:#000000;stroke-width:0.1;stroke-dasharray:none;stop-color:#000000"
         id="circle31324"
         cx="1150.0001"
         cy="80.478806"
         r="1.9718378" />
      <path
         style="fill:none;stroke:#000000;stroke-width:0.1;stroke-linecap:butt;stroke-linejoin:miter;stroke-dasharray:none;stroke-opacity:1"
         d="m 1146.028,80.478804 h 7.944"
         id="path31326" />
      <path
         style="fill:none;stroke:#000000;stroke-width:0.1;stroke-linecap:butt;stroke-linejoin:miter;stroke-dasharray:none;stroke-opacity:1"
         d="m 1150.0001,76.507003 v 7.944"
         id="path31328" />
    </g>
    <text
       xml:space="preserve"
       style="font-size:8.46667px;line-height:1.25;font-family:Roboto;-inkscape-font-specification:Roboto;letter-spacing:0px;stroke-width:0.264583"
       x="1200.4802"
       y="314.09354"
       id="text34728"><tspan
         sodipodi:role="line"
         id="tspan34726"
         style="stroke-width:0.264583"
         x="1200.4802"
         y="314.09354">Mittlerer Ringdurchmesser = Distanz gegenüberliegender Haken: 213,9 cm</tspan><tspan
         sodipodi:role="line"
         style="stroke-width:0.264583"
         x="1200.4802"
         y="324.67688"
         id="tspan37635">Ringbreite: 10 cm</tspan><tspan
         sodipodi:role="line"
         style="stroke-width:0.264583"
         x="1200.4802"
         y="335.26022"
         id="tspan37687">Distanz benachbarter Haken = 27,9 cm</tspan></text>
    <text
       xml:space="preserve"
       style="font-size:8.46667px;line-height:1.25;font-family:Roboto;-inkscape-font-specification:Roboto;letter-spacing:0px;stroke-width:0.264583"
       x="1200.4802"
       y="314.09354"
       id="text38417"><tspan
         sodipodi:role="line"
         id="tspan38415"
         style="stroke-width:0.264583"></tspan></text>
  </g>
</svg>
