<?xml version="1.0" encoding="UTF-8" standalone="no"?>
<!-- Created with Inkscape (http://www.inkscape.org/) -->

<svg
   width="300mm"
   height="300mm"
   viewBox="0 0 300 300"
   version="1.1"
   id="svg2569"
   inkscape:version="1.2.2 (b0a8486541, 2022-12-01)"
   sodipodi:docname="third-boards-center-CUT.svg"
   xmlns:inkscape="http://www.inkscape.org/namespaces/inkscape"
   xmlns:sodipodi="http://sodipodi.sourceforge.net/DTD/sodipodi-0.dtd"
   xmlns="http://www.w3.org/2000/svg"
   xmlns:svg="http://www.w3.org/2000/svg">
  <sodipodi:namedview
     id="namedview2571"
     pagecolor="#ffffff"
     bordercolor="#666666"
     borderopacity="1.0"
     inkscape:showpageshadow="2"
     inkscape:pageopacity="0.0"
     inkscape:pagecheckerboard="0"
     inkscape:deskcolor="#d1d1d1"
     inkscape:document-units="mm"
     showgrid="false"
     showguides="true"
     inkscape:zoom="0.36637882"
     inkscape:cx="833.83641"
     inkscape:cy="693.27152"
     inkscape:window-width="1920"
     inkscape:window-height="1011"
     inkscape:window-x="0"
     inkscape:window-y="0"
     inkscape:window-maximized="1"
     inkscape:current-layer="layer1">
    <sodipodi:guide
       position="150,300"
       orientation="-1,0"
       id="guide2654"
       inkscape:locked="true"
       inkscape:label=""
       inkscape:color="rgb(0,134,229)" />
    <sodipodi:guide
       position="0,150"
       orientation="0,1"
       id="guide2656"
       inkscape:locked="true"
       inkscape:label=""
       inkscape:color="rgb(0,134,229)" />
  </sodipodi:namedview>
  <defs
     id="defs2566" />
  <g
     inkscape:label="Layer 1"
     inkscape:groupmode="layer"
     id="layer1">
    <g
       id="g517"
       transform="translate(-225.00155,-215.4379)">
      <g
         id="g5105"
         inkscape:transform-center-y="77.842857">
        <g
           id="g5091">
          <circle
             style="opacity:0.999;fill:none;stroke:#000000;stroke-width:0.352778;stroke-linecap:square;stroke-miterlimit:4;stroke-dasharray:none;stop-color:#000000"
             id="circle5020"
             cx="315"
             cy="484.84271"
             r="1.323611" />
          <circle
             style="opacity:0.999;fill:none;stroke:#000000;stroke-width:0.352778;stroke-linecap:square;stroke-miterlimit:4;stroke-dasharray:none;stop-color:#000000"
             id="circle5022"
             cx="435"
             cy="484.84271"
             r="1.323611" />
        </g>
        <g
           id="g5097"
           transform="translate(0,-63.999712)">
          <circle
             style="opacity:0.999;fill:none;stroke:#000000;stroke-width:0.352778;stroke-linecap:square;stroke-miterlimit:4;stroke-dasharray:none;stop-color:#000000"
             id="circle5093"
             cx="315"
             cy="484.84271"
             r="1.323611" />
          <circle
             style="opacity:0.999;fill:none;stroke:#000000;stroke-width:0.352778;stroke-linecap:square;stroke-miterlimit:4;stroke-dasharray:none;stop-color:#000000"
             id="circle5095"
             cx="435"
             cy="484.84271"
             r="1.323611" />
        </g>
      </g>
      <g
         id="g5119"
         inkscape:transform-center-y="-38.921428"
         transform="rotate(-120,375,375)"
         inkscape:transform-center-x="-67.413891">
        <g
           id="g5111">
          <circle
             style="opacity:0.999;fill:none;stroke:#000000;stroke-width:0.352778;stroke-linecap:square;stroke-miterlimit:4;stroke-dasharray:none;stop-color:#000000"
             id="circle5107"
             cx="315"
             cy="484.84271"
             r="1.323611" />
          <circle
             style="opacity:0.999;fill:none;stroke:#000000;stroke-width:0.352778;stroke-linecap:square;stroke-miterlimit:4;stroke-dasharray:none;stop-color:#000000"
             id="circle5109"
             cx="435"
             cy="484.84271"
             r="1.323611" />
        </g>
        <g
           id="g5117"
           transform="translate(0,-63.999712)">
          <circle
             style="opacity:0.999;fill:none;stroke:#000000;stroke-width:0.352778;stroke-linecap:square;stroke-miterlimit:4;stroke-dasharray:none;stop-color:#000000"
             id="circle5113"
             cx="315"
             cy="484.84271"
             r="1.323611" />
          <circle
             style="opacity:0.999;fill:none;stroke:#000000;stroke-width:0.352778;stroke-linecap:square;stroke-miterlimit:4;stroke-dasharray:none;stop-color:#000000"
             id="circle5115"
             cx="435"
             cy="484.84271"
             r="1.323611" />
        </g>
      </g>
      <g
         id="g5133"
         inkscape:transform-center-y="-38.921428"
         transform="rotate(120,375,375)"
         inkscape:transform-center-x="67.413891">
        <g
           id="g5125">
          <circle
             style="opacity:0.999;fill:none;stroke:#000000;stroke-width:0.352778;stroke-linecap:square;stroke-miterlimit:4;stroke-dasharray:none;stop-color:#000000"
             id="circle5121"
             cx="315"
             cy="484.84271"
             r="1.323611" />
          <circle
             style="opacity:0.999;fill:none;stroke:#000000;stroke-width:0.352778;stroke-linecap:square;stroke-miterlimit:4;stroke-dasharray:none;stop-color:#000000"
             id="circle5123"
             cx="435"
             cy="484.84271"
             r="1.323611" />
        </g>
        <g
           id="g5131"
           transform="translate(0,-63.999712)">
          <circle
             style="opacity:0.999;fill:none;stroke:#000000;stroke-width:0.352778;stroke-linecap:square;stroke-miterlimit:4;stroke-dasharray:none;stop-color:#000000"
             id="circle5127"
             cx="315"
             cy="484.84271"
             r="1.323611" />
          <circle
             style="opacity:0.999;fill:none;stroke:#000000;stroke-width:0.352778;stroke-linecap:square;stroke-miterlimit:4;stroke-dasharray:none;stop-color:#000000"
             id="circle5129"
             cx="435"
             cy="484.84271"
             r="1.323611" />
        </g>
      </g>
      <g
         id="g7714"
         inkscape:transform-center-x="-0.00027906453"
         inkscape:transform-center-y="114.31438" />
      <g
         id="g7720"
         inkscape:transform-center-x="-98.481863"
         inkscape:transform-center-y="-56.592616"
         transform="rotate(-120,375,375)" />
      <g
         id="g7726"
         inkscape:transform-center-x="-0.000275589"
         inkscape:transform-center-y="114.31438"
         transform="rotate(120,375,375)" />
      <g
         id="g7844"
         inkscape:transform-center-x="98.366749"
         inkscape:transform-center-y="-56.314142"
         transform="rotate(-120,375,375)" />
      <g
         id="g7848"
         inkscape:transform-center-x="-98.371459"
         inkscape:transform-center-y="-56.315223">
        <path
           id="path7846"
           style="opacity:0.999;fill:none;stroke:#000000;stroke-width:0.799999;stroke-linecap:square;stop-color:#000000"
           d="m 472.93341,312.62564 46.70305,80.89207 c 0.37589,0.65107 -0.91647,2.76475 -1.59723,3.97598 l -52.03895,90.13507 c -0.46345,0.81071 -1.91209,3.37123 -2.64467,3.37123 L 381.01429,491 M 272.01551,321.37436 318.71858,240.4823 c 0.3759,-0.65107 2.85258,-0.58869 4.24191,-0.60475 l 104.07874,-4.8e-4 c 0.93382,-0.004 3.87561,-0.0297 4.2419,0.60473 l 41.17067,71.30967 M 380.05108,491 l -93.40612,-10e-6 c -0.75179,0 -1.93611,-2.17606 -2.64468,-3.37123 l -26.0199,-45.0673 -26.01989,-45.06729 c -0.47037,-0.80671 -1.96352,-3.34153 -1.59723,-3.97596 l 41.17065,-71.30968"
           sodipodi:nodetypes="ccccsccccccccsccccc" />
      </g>
      <circle
         style="fill:none;fill-opacity:1;stroke:#000000;stroke-width:0.2;stroke-dasharray:none;stop-color:#000000"
         id="path8229"
         cx="434.75"
         cy="398.23001"
         r="1.5" />
      <circle
         style="fill:none;fill-opacity:1;stroke:#000000;stroke-width:0.2;stroke-dasharray:none;stop-color:#000000"
         id="circle8296"
         cx="315.35001"
         cy="416.23001"
         r="1.5" />
      <circle
         style="fill:none;fill-opacity:1;stroke:#000000;stroke-width:0.2;stroke-dasharray:none;stop-color:#000000"
         id="circle10608"
         cx="398.96542"
         cy="333.54001"
         r="4.9000001" />
      <circle
         style="fill:none;fill-opacity:1;stroke:#000000;stroke-width:0.2;stroke-dasharray:none;stop-color:#000000"
         id="circle10677"
         cx="375"
         cy="375"
         r="1.5" />
      <g
         id="g10699"
         inkscape:transform-center-x="2.6581214e-06"
         inkscape:transform-center-y="76.726014">
        <g
           id="g10685"
           transform="translate(-192.3017)">
          <circle
             style="fill:none;fill-opacity:1;stroke:#000000;stroke-width:0.2;stroke-dasharray:none;stop-color:#000000"
             id="circle10679"
             cx="467.3017"
             cy="441.72601"
             r="0.89999998" />
          <circle
             style="fill:none;fill-opacity:1;stroke:#000000;stroke-width:0.2;stroke-dasharray:none;stop-color:#000000"
             id="circle10681"
             cx="467.3017"
             cy="461.72601"
             r="0.89999998" />
        </g>
        <g
           id="g10691"
           transform="translate(7.698303)">
          <circle
             style="fill:none;fill-opacity:1;stroke:#000000;stroke-width:0.2;stroke-dasharray:none;stop-color:#000000"
             id="circle10687"
             cx="467.3017"
             cy="441.72601"
             r="0.89999998" />
          <circle
             style="fill:none;fill-opacity:1;stroke:#000000;stroke-width:0.2;stroke-dasharray:none;stop-color:#000000"
             id="circle10689"
             cx="467.3017"
             cy="461.72601"
             r="0.89999998" />
        </g>
      </g>
      <g
         id="g10727"
         inkscape:transform-center-x="-66.446676"
         inkscape:transform-center-y="-38.363004"
         transform="rotate(-120,375,375)">
        <g
           id="g10719"
           transform="translate(-192.3017)">
          <circle
             style="fill:none;fill-opacity:1;stroke:#000000;stroke-width:0.2;stroke-dasharray:none;stop-color:#000000"
             id="circle10715"
             cx="467.3017"
             cy="441.72601"
             r="0.89999998" />
          <circle
             style="fill:none;fill-opacity:1;stroke:#000000;stroke-width:0.2;stroke-dasharray:none;stop-color:#000000"
             id="circle10717"
             cx="467.3017"
             cy="461.72601"
             r="0.89999998" />
        </g>
        <g
           id="g10725"
           transform="translate(7.698303)">
          <circle
             style="fill:none;fill-opacity:1;stroke:#000000;stroke-width:0.2;stroke-dasharray:none;stop-color:#000000"
             id="circle10721"
             cx="467.3017"
             cy="441.72601"
             r="0.89999998" />
          <circle
             style="fill:none;fill-opacity:1;stroke:#000000;stroke-width:0.2;stroke-dasharray:none;stop-color:#000000"
             id="circle10723"
             cx="467.3017"
             cy="461.72601"
             r="0.89999998" />
        </g>
      </g>
      <g
         id="g10741"
         inkscape:transform-center-x="66.446677"
         inkscape:transform-center-y="-38.363007"
         transform="rotate(120,375,375)">
        <g
           id="g10733"
           transform="translate(-192.3017)">
          <circle
             style="fill:none;fill-opacity:1;stroke:#000000;stroke-width:0.2;stroke-dasharray:none;stop-color:#000000"
             id="circle10729"
             cx="467.3017"
             cy="441.72601"
             r="0.89999998" />
          <circle
             style="fill:none;fill-opacity:1;stroke:#000000;stroke-width:0.2;stroke-dasharray:none;stop-color:#000000"
             id="circle10731"
             cx="467.3017"
             cy="461.72601"
             r="0.89999998" />
        </g>
        <g
           id="g10739"
           transform="translate(7.698303)">
          <circle
             style="fill:none;fill-opacity:1;stroke:#000000;stroke-width:0.2;stroke-dasharray:none;stop-color:#000000"
             id="circle10735"
             cx="467.3017"
             cy="441.72601"
             r="0.89999998" />
          <circle
             style="fill:none;fill-opacity:1;stroke:#000000;stroke-width:0.2;stroke-dasharray:none;stop-color:#000000"
             id="circle10737"
             cx="467.3017"
             cy="461.72601"
             r="0.89999998" />
        </g>
      </g>
      <circle
         style="fill:none;fill-opacity:1;stroke:#000000;stroke-width:0.2;stroke-dasharray:none;stop-color:#000000"
         id="circle10886"
         cx="360"
         cy="361.36005"
         r="1.5" />
      <circle
         style="fill:none;fill-opacity:1;stroke:#000000;stroke-width:0.2;stroke-dasharray:none;stop-color:#000000"
         id="circle10892"
         cx="390"
         cy="361.36005"
         r="1.5" />
      <circle
         style="fill:none;fill-opacity:1;stroke:#000000;stroke-width:0.2;stroke-dasharray:none;stop-color:#000000"
         id="circle12356"
         cx="374.99985"
         cy="244.55226"
         r="1.5"
         inkscape:transform-center-y="-130.44774"
         inkscape:transform-center-x="0.00015352339" />
      <circle
         style="fill:none;fill-opacity:1;stroke:#000000;stroke-width:0.2;stroke-dasharray:none;stop-color:#000000"
         id="circle252"
         cx="137.25937"
         cy="-642.70728"
         r="1.5"
         inkscape:transform-center-y="65.223737"
         inkscape:transform-center-x="-112.97114"
         transform="rotate(120)" />
      <circle
         style="fill:none;fill-opacity:1;stroke:#000000;stroke-width:0.2;stroke-dasharray:none;stop-color:#000000"
         id="circle254"
         cx="-512.2597"
         cy="6.8117867"
         r="1.5"
         inkscape:transform-center-y="65.224023"
         inkscape:transform-center-x="112.97097"
         transform="rotate(-120)" />
    </g>
  </g>
</svg>
